-- Merging decision tree log ---
manifest
ADDED from C:\Users\GEORGE\Documents\REPOSITORIO\varios\Source code\app\src\main\AndroidManifest.xml:2:1-217:12
INJECTED from C:\Users\GEORGE\Documents\REPOSITORIO\varios\Source code\app\src\main\AndroidManifest.xml:2:1-217:12
INJECTED from C:\Users\GEORGE\Documents\REPOSITORIO\varios\Source code\app\src\main\AndroidManifest.xml:2:1-217:12
INJECTED from C:\Users\GEORGE\Documents\REPOSITORIO\varios\Source code\app\src\main\AndroidManifest.xml:2:1-217:12
MERGED from [com.android.databinding:adapters:3.3.2] C:\Users\GEORGE\.gradle\caches\transforms-1\files-1.1\adapters-3.3.2.aar\b87adfd547629979adb82b7fc4c611c8\AndroidManifest.xml:17:1-24:12
MERGED from [com.android.databinding:library:3.3.2] C:\Users\GEORGE\.gradle\caches\transforms-1\files-1.1\library-3.3.2.aar\ff6db8d324e981d93fb5411e2e88d189\AndroidManifest.xml:17:1-24:12
MERGED from [com.android.support:design:28.0.0] C:\Users\GEORGE\.gradle\caches\transforms-1\files-1.1\design-28.0.0.aar\a73c151c2bd289d9ac84adb621582087\AndroidManifest.xml:17:1-24:12
MERGED from [com.h6ah4i.android.widget.advrecyclerview:advrecyclerview:0.11.0] C:\Users\GEORGE\.gradle\caches\transforms-1\files-1.1\advrecyclerview-0.11.0.aar\514bad4c7b0069c176a4d171c7d0c98a\AndroidManifest.xml:17:1-27:12
MERGED from [com.heinrichreimersoftware:material-intro:1.6] C:\Users\GEORGE\.gradle\caches\transforms-1\files-1.1\material-intro-1.6.aar\1f91c0a7fe2c73dd0d683045652cb348\AndroidManifest.xml:2:1-12:12
MERGED from [com.android.support:appcompat-v7:28.0.0] C:\Users\GEORGE\.gradle\caches\transforms-1\files-1.1\appcompat-v7-28.0.0.aar\adf75b1cf53731300bd50906ab9fc7df\AndroidManifest.xml:17:1-22:12
MERGED from [com.google.firebase:firebase-messaging:17.3.4] C:\Users\GEORGE\.gradle\caches\transforms-1\files-1.1\firebase-messaging-17.3.4.aar\14247e62492c7f7bae8b8826768b9aaa\AndroidManifest.xml:17:1-37:12
MERGED from [com.google.firebase:firebase-database:16.0.5] C:\Users\GEORGE\.gradle\caches\transforms-1\files-1.1\firebase-database-16.0.5.aar\afbae510805609010551428e4623b014\AndroidManifest.xml:15:1-25:12
MERGED from [com.google.firebase:firebase-auth:16.0.5] C:\Users\GEORGE\.gradle\caches\transforms-1\files-1.1\firebase-auth-16.0.5.aar\f55c734f08078d280507d0200513ad44\AndroidManifest.xml:17:1-42:12
MERGED from [com.google.firebase:firebase-storage:16.0.5] C:\Users\GEORGE\.gradle\caches\transforms-1\files-1.1\firebase-storage-16.0.5.aar\b6eec2d5dc5d9deb1ed2b67d3152c58b\AndroidManifest.xml:15:1-26:12
MERGED from [com.google.firebase:firebase-core:16.0.5] C:\Users\GEORGE\.gradle\caches\transforms-1\files-1.1\firebase-core-16.0.5.aar\9c996f03ffc5f5afde9bf0597e0be312\AndroidManifest.xml:2:1-9:12
MERGED from [com.google.firebase:firebase-measurement-connector-impl:17.0.3] C:\Users\GEORGE\.gradle\caches\transforms-1\files-1.1\firebase-measurement-connector-impl-17.0.3.aar\6904fb48ad62615d50ad3c60671389ae\AndroidManifest.xml:17:1-34:12
MERGED from [com.google.firebase:firebase-analytics:16.0.5] C:\Users\GEORGE\.gradle\caches\transforms-1\files-1.1\firebase-analytics-16.0.5.aar\d54f59545f49ba231c84f68dd235645b\AndroidManifest.xml:17:1-55:12
MERGED from [com.google.android.gms:play-services-measurement-api:16.0.3] C:\Users\GEORGE\.gradle\caches\transforms-1\files-1.1\play-services-measurement-api-16.0.3.aar\c7f32b77067dd8bf861816c8b2b43c3e\AndroidManifest.xml:17:1-25:12
MERGED from [com.google.firebase:firebase-analytics-impl:16.2.3] C:\Users\GEORGE\.gradle\caches\transforms-1\files-1.1\firebase-analytics-impl-16.2.3.aar\f1f286316ab2c198306bf644d03e684c\AndroidManifest.xml:17:1-40:12
MERGED from [com.google.firebase:firebase-iid:17.0.4] C:\Users\GEORGE\.gradle\caches\transforms-1\files-1.1\firebase-iid-17.0.4.aar\321bfaab2dffd1a4cdf7e5e86a9e192b\AndroidManifest.xml:17:1-59:12
MERGED from [com.google.firebase:firebase-auth-interop:16.0.1] C:\Users\GEORGE\.gradle\caches\transforms-1\files-1.1\firebase-auth-interop-16.0.1.aar\fd9cebd59f3666940c5c3590e054a578\AndroidManifest.xml:2:1-10:12
MERGED from [com.google.firebase:firebase-common:16.0.4] C:\Users\GEORGE\.gradle\caches\transforms-1\files-1.1\firebase-common-16.0.4.aar\7261c89572737b21de606748d73f3661\AndroidManifest.xml:2:1-17:12
MERGED from [com.google.android.gms:play-services-flags:16.0.1] C:\Users\GEORGE\.gradle\caches\transforms-1\files-1.1\play-services-flags-16.0.1.aar\874f2bebf806db3d5fd72944e14f2e6e\AndroidManifest.xml:17:1-22:12
MERGED from [com.google.firebase:firebase-iid-interop:16.0.1] C:\Users\GEORGE\.gradle\caches\transforms-1\files-1.1\firebase-iid-interop-16.0.1.aar\7135c7b2e649fbca3680b463e876a435\AndroidManifest.xml:2:1-10:12
MERGED from [com.google.android.gms:play-services-base:16.0.1] C:\Users\GEORGE\.gradle\caches\transforms-1\files-1.1\play-services-base-16.0.1.aar\43f74d7e926959ff60864b18a399daa4\AndroidManifest.xml:17:1-29:12
MERGED from [com.google.android.gms:play-services-tasks:16.0.1] C:\Users\GEORGE\.gradle\caches\transforms-1\files-1.1\play-services-tasks-16.0.1.aar\2750a0ed957d48eb02ad81f219745c9b\AndroidManifest.xml:2:1-9:12
MERGED from [com.google.firebase:firebase-measurement-connector:17.0.1] C:\Users\GEORGE\.gradle\caches\transforms-1\files-1.1\firebase-measurement-connector-17.0.1.aar\afe7ea2684d00037f91b41c1ca14a7ab\AndroidManifest.xml:17:1-25:12
MERGED from [com.google.android.gms:play-services-stats:16.0.1] C:\Users\GEORGE\.gradle\caches\transforms-1\files-1.1\play-services-stats-16.0.1.aar\fbd8e531580148a3fe2469a5b0652bfc\AndroidManifest.xml:2:1-9:12
MERGED from [com.google.android.gms:play-services-measurement-base:16.0.4] C:\Users\GEORGE\.gradle\caches\transforms-1\files-1.1\play-services-measurement-base-16.0.4.aar\fa6c7014fbe507e4f8b8b14db2fe1218\AndroidManifest.xml:2:1-9:12
MERGED from [com.google.android.gms:play-services-ads-identifier:16.0.0] C:\Users\GEORGE\.gradle\caches\transforms-1\files-1.1\play-services-ads-identifier-16.0.0.aar\8cc14f57b5c977a5913831ede29d3585\AndroidManifest.xml:17:1-24:12
MERGED from [com.google.android.gms:play-services-basement:16.1.0] C:\Users\GEORGE\.gradle\caches\transforms-1\files-1.1\play-services-basement-16.1.0.aar\a3b0d04da621286d97933358a6f2ca2d\AndroidManifest.xml:17:1-28:12
MERGED from [com.android.support:support-v4:28.0.0] C:\Users\GEORGE\.gradle\caches\transforms-1\files-1.1\support-v4-28.0.0.aar\4ce7866fedad39ff6646fb01e9abcbfa\AndroidManifest.xml:17:1-22:12
MERGED from [com.android.support:gridlayout-v7:28.0.0] C:\Users\GEORGE\.gradle\caches\transforms-1\files-1.1\gridlayout-v7-28.0.0.aar\07a55267fcdb9ea6cfd396070b44db1e\AndroidManifest.xml:17:1-22:12
MERGED from [com.android.support:cardview-v7:28.0.0] C:\Users\GEORGE\.gradle\caches\transforms-1\files-1.1\cardview-v7-28.0.0.aar\4c515aeb8a92b110e517d00f3f18c793\AndroidManifest.xml:17:1-22:12
MERGED from [com.android.support.constraint:constraint-layout:1.1.3] C:\Users\GEORGE\.gradle\caches\transforms-1\files-1.1\constraint-layout-1.1.3.aar\a2b54b7f1ba2d9289e6cddcfae68c601\AndroidManifest.xml:2:1-11:12
MERGED from [com.ogaclejapan.smarttablayout:library:1.6.1] C:\Users\GEORGE\.gradle\caches\transforms-1\files-1.1\library-1.6.1.aar\d522a5b7cddcdad43d1d5ae8bb524607\AndroidManifest.xml:2:1-12:12
MERGED from [com.ogaclejapan.smarttablayout:utils-v4:1.6.1] C:\Users\GEORGE\.gradle\caches\transforms-1\files-1.1\utils-v4-1.6.1.aar\646528312a18441b964ba883da79e1ef\AndroidManifest.xml:2:1-12:12
MERGED from [com.android.support:support-fragment:28.0.0] C:\Users\GEORGE\.gradle\caches\transforms-1\files-1.1\support-fragment-28.0.0.aar\97f95aa96f629c267b07fddc92acda07\AndroidManifest.xml:17:1-22:12
MERGED from [com.android.support:animated-vector-drawable:28.0.0] C:\Users\GEORGE\.gradle\caches\transforms-1\files-1.1\animated-vector-drawable-28.0.0.aar\364afe0be79a10765a73e51cb03642ec\AndroidManifest.xml:17:1-22:12
MERGED from [com.android.support:recyclerview-v7:28.0.0] C:\Users\GEORGE\.gradle\caches\transforms-1\files-1.1\recyclerview-v7-28.0.0.aar\c3d8ea09ce9b77010679c2ec1f61002d\AndroidManifest.xml:17:1-22:12
MERGED from [com.android.support:support-core-ui:28.0.0] C:\Users\GEORGE\.gradle\caches\transforms-1\files-1.1\support-core-ui-28.0.0.aar\f02915eadde38bc13a230586f1ef6c1b\AndroidManifest.xml:17:1-22:12
MERGED from [com.android.support:support-core-utils:28.0.0] C:\Users\GEORGE\.gradle\caches\transforms-1\files-1.1\support-core-utils-28.0.0.aar\755ca243617e9870010dd1ce0bf888d2\AndroidManifest.xml:17:1-22:12
MERGED from [com.android.support:support-vector-drawable:28.0.0] C:\Users\GEORGE\.gradle\caches\transforms-1\files-1.1\support-vector-drawable-28.0.0.aar\da824a9fb560ca00c46f1c5c8c8e2f7d\AndroidManifest.xml:17:1-22:12
MERGED from [com.android.support:support-media-compat:28.0.0] C:\Users\GEORGE\.gradle\caches\transforms-1\files-1.1\support-media-compat-28.0.0.aar\189df5758e41376c55b72636597c1a24\AndroidManifest.xml:17:1-22:12
MERGED from [com.android.support:transition:28.0.0] C:\Users\GEORGE\.gradle\caches\transforms-1\files-1.1\transition-28.0.0.aar\baa0f46639c7177f049776956fc89f0f\AndroidManifest.xml:17:1-22:12
MERGED from [com.android.support:loader:28.0.0] C:\Users\GEORGE\.gradle\caches\transforms-1\files-1.1\loader-28.0.0.aar\0f1886fbba3725df34b3b512a886a32b\AndroidManifest.xml:17:1-22:12
MERGED from [com.android.support:viewpager:28.0.0] C:\Users\GEORGE\.gradle\caches\transforms-1\files-1.1\viewpager-28.0.0.aar\d87969e1d23c3ed25fc13dfe1f5c7185\AndroidManifest.xml:17:1-22:12
MERGED from [com.android.support:coordinatorlayout:28.0.0] C:\Users\GEORGE\.gradle\caches\transforms-1\files-1.1\coordinatorlayout-28.0.0.aar\7794a38ac90720d1213e9d3ce02ff359\AndroidManifest.xml:17:1-22:12
MERGED from [com.android.support:drawerlayout:28.0.0] C:\Users\GEORGE\.gradle\caches\transforms-1\files-1.1\drawerlayout-28.0.0.aar\2db517b8ab46f583b7ab66a3c90aac49\AndroidManifest.xml:17:1-22:12
MERGED from [com.android.support:slidingpanelayout:28.0.0] C:\Users\GEORGE\.gradle\caches\transforms-1\files-1.1\slidingpanelayout-28.0.0.aar\999598d1b7666e276d3288717bd68719\AndroidManifest.xml:17:1-22:12
MERGED from [com.android.support:customview:28.0.0] C:\Users\GEORGE\.gradle\caches\transforms-1\files-1.1\customview-28.0.0.aar\77886d95a951841975e38b23519cf7d4\AndroidManifest.xml:17:1-22:12
MERGED from [com.android.support:swiperefreshlayout:28.0.0] C:\Users\GEORGE\.gradle\caches\transforms-1\files-1.1\swiperefreshlayout-28.0.0.aar\244cb5590ea54e48b004f00110882a8b\AndroidManifest.xml:17:1-22:12
MERGED from [com.android.support:asynclayoutinflater:28.0.0] C:\Users\GEORGE\.gradle\caches\transforms-1\files-1.1\asynclayoutinflater-28.0.0.aar\debbc1b615a0d03de8fba596a8dfa4ed\AndroidManifest.xml:17:1-22:12
MERGED from [com.android.support:support-compat:28.0.0] C:\Users\GEORGE\.gradle\caches\transforms-1\files-1.1\support-compat-28.0.0.aar\7104eb5e2e186082aecb5125d5077a5d\AndroidManifest.xml:17:1-24:12
MERGED from [android.arch.lifecycle:runtime:1.1.1] C:\Users\GEORGE\.gradle\caches\transforms-1\files-1.1\runtime-1.1.1.aar\aabde205df8ba7038e00f342a285b9dd\AndroidManifest.xml:17:1-22:12
MERGED from [com.android.support:versionedparcelable:28.0.0] C:\Users\GEORGE\.gradle\caches\transforms-1\files-1.1\versionedparcelable-28.0.0.aar\781aa78fe9800cf7fa617babf0a4ec98\AndroidManifest.xml:17:1-25:12
MERGED from [com.android.support:cursoradapter:28.0.0] C:\Users\GEORGE\.gradle\caches\transforms-1\files-1.1\cursoradapter-28.0.0.aar\5b1ec88df8d8381df38e25e66c4e1ed7\AndroidManifest.xml:17:1-22:12
MERGED from [com.android.support:documentfile:28.0.0] C:\Users\GEORGE\.gradle\caches\transforms-1\files-1.1\documentfile-28.0.0.aar\fa9fab433115237651620e97d3b037a3\AndroidManifest.xml:17:1-22:12
MERGED from [com.android.support:localbroadcastmanager:28.0.0] C:\Users\GEORGE\.gradle\caches\transforms-1\files-1.1\localbroadcastmanager-28.0.0.aar\4860fbff1a24d6d620482e997cf3becc\AndroidManifest.xml:17:1-22:12
MERGED from [com.android.support:print:28.0.0] C:\Users\GEORGE\.gradle\caches\transforms-1\files-1.1\print-28.0.0.aar\a38c790c2e5f2074481b7091b28d8c84\AndroidManifest.xml:17:1-22:12
MERGED from [android.arch.lifecycle:viewmodel:1.1.1] C:\Users\GEORGE\.gradle\caches\transforms-1\files-1.1\viewmodel-1.1.1.aar\42f4309fb95918e1e4033efc9d0dd824\AndroidManifest.xml:17:1-22:12
MERGED from [com.android.support:interpolator:28.0.0] C:\Users\GEORGE\.gradle\caches\transforms-1\files-1.1\interpolator-28.0.0.aar\1a966a42367641c9ab1117861f68fe07\AndroidManifest.xml:17:1-22:12
MERGED from [android.arch.lifecycle:livedata:1.1.1] C:\Users\GEORGE\.gradle\caches\transforms-1\files-1.1\livedata-1.1.1.aar\f8f220ce8ae452a120e58237d4c9fe7a\AndroidManifest.xml:17:1-22:12
MERGED from [android.arch.lifecycle:livedata-core:1.1.1] C:\Users\GEORGE\.gradle\caches\transforms-1\files-1.1\livedata-core-1.1.1.aar\41e98e7aabbb4d0471368cd53664c17c\AndroidManifest.xml:17:1-22:12
MERGED from [android.arch.core:runtime:1.1.1] C:\Users\GEORGE\.gradle\caches\transforms-1\files-1.1\runtime-1.1.1.aar\80e7a41fa5ecf05b349270f5be193fdf\AndroidManifest.xml:17:1-22:12
MERGED from [com.google.firebase:firebase-database-collection:16.0.1] C:\Users\GEORGE\.gradle\caches\transforms-1\files-1.1\firebase-database-collection-16.0.1.aar\ff72fcacc380cd6cc742fae28886638d\AndroidManifest.xml:2:1-7:12
INJECTED from C:\Users\GEORGE\Documents\REPOSITORIO\varios\Source code\app\src\main\AndroidManifest.xml:2:1-217:12
INJECTED from C:\Users\GEORGE\Documents\REPOSITORIO\varios\Source code\app\src\main\AndroidManifest.xml:2:1-217:12
INJECTED from C:\Users\GEORGE\Documents\REPOSITORIO\varios\Source code\app\src\main\AndroidManifest.xml:2:1-217:12
	package
		ADDED from C:\Users\GEORGE\Documents\REPOSITORIO\varios\Source code\app\src\main\AndroidManifest.xml:3:5-48
		INJECTED from C:\Users\GEORGE\Documents\REPOSITORIO\varios\Source code\app\src\main\AndroidManifest.xml
		INJECTED from C:\Users\GEORGE\Documents\REPOSITORIO\varios\Source code\app\src\main\AndroidManifest.xml
	android:versionName
		INJECTED from C:\Users\GEORGE\Documents\REPOSITORIO\varios\Source code\app\src\main\AndroidManifest.xml
		ADDED from C:\Users\GEORGE\Documents\REPOSITORIO\varios\Source code\app\src\main\AndroidManifest.xml:2:1-217:12
		INJECTED from C:\Users\GEORGE\Documents\REPOSITORIO\varios\Source code\app\src\main\AndroidManifest.xml
	android:versionCode
		INJECTED from C:\Users\GEORGE\Documents\REPOSITORIO\varios\Source code\app\src\main\AndroidManifest.xml
		ADDED from C:\Users\GEORGE\Documents\REPOSITORIO\varios\Source code\app\src\main\AndroidManifest.xml:2:1-217:12
		INJECTED from C:\Users\GEORGE\Documents\REPOSITORIO\varios\Source code\app\src\main\AndroidManifest.xml
	xmlns:android
		ADDED from C:\Users\GEORGE\Documents\REPOSITORIO\varios\Source code\app\src\main\AndroidManifest.xml:2:11-69
uses-permission#android.permission.INTERNET
ADDED from C:\Users\GEORGE\Documents\REPOSITORIO\varios\Source code\app\src\main\AndroidManifest.xml:4:5-67
MERGED from [com.google.firebase:firebase-database:16.0.5] C:\Users\GEORGE\.gradle\caches\transforms-1\files-1.1\firebase-database-16.0.5.aar\afbae510805609010551428e4623b014\AndroidManifest.xml:23:5-67
MERGED from [com.google.firebase:firebase-database:16.0.5] C:\Users\GEORGE\.gradle\caches\transforms-1\files-1.1\firebase-database-16.0.5.aar\afbae510805609010551428e4623b014\AndroidManifest.xml:23:5-67
MERGED from [com.google.firebase:firebase-storage:16.0.5] C:\Users\GEORGE\.gradle\caches\transforms-1\files-1.1\firebase-storage-16.0.5.aar\b6eec2d5dc5d9deb1ed2b67d3152c58b\AndroidManifest.xml:24:5-67
MERGED from [com.google.firebase:firebase-storage:16.0.5] C:\Users\GEORGE\.gradle\caches\transforms-1\files-1.1\firebase-storage-16.0.5.aar\b6eec2d5dc5d9deb1ed2b67d3152c58b\AndroidManifest.xml:24:5-67
MERGED from [com.google.firebase:firebase-measurement-connector-impl:17.0.3] C:\Users\GEORGE\.gradle\caches\transforms-1\files-1.1\firebase-measurement-connector-impl-17.0.3.aar\6904fb48ad62615d50ad3c60671389ae\AndroidManifest.xml:22:5-67
MERGED from [com.google.firebase:firebase-measurement-connector-impl:17.0.3] C:\Users\GEORGE\.gradle\caches\transforms-1\files-1.1\firebase-measurement-connector-impl-17.0.3.aar\6904fb48ad62615d50ad3c60671389ae\AndroidManifest.xml:22:5-67
MERGED from [com.google.firebase:firebase-analytics:16.0.5] C:\Users\GEORGE\.gradle\caches\transforms-1\files-1.1\firebase-analytics-16.0.5.aar\d54f59545f49ba231c84f68dd235645b\AndroidManifest.xml:23:5-67
MERGED from [com.google.firebase:firebase-analytics:16.0.5] C:\Users\GEORGE\.gradle\caches\transforms-1\files-1.1\firebase-analytics-16.0.5.aar\d54f59545f49ba231c84f68dd235645b\AndroidManifest.xml:23:5-67
MERGED from [com.google.firebase:firebase-analytics-impl:16.2.3] C:\Users\GEORGE\.gradle\caches\transforms-1\files-1.1\firebase-analytics-impl-16.2.3.aar\f1f286316ab2c198306bf644d03e684c\AndroidManifest.xml:23:5-67
MERGED from [com.google.firebase:firebase-analytics-impl:16.2.3] C:\Users\GEORGE\.gradle\caches\transforms-1\files-1.1\firebase-analytics-impl-16.2.3.aar\f1f286316ab2c198306bf644d03e684c\AndroidManifest.xml:23:5-67
MERGED from [com.google.firebase:firebase-iid:17.0.4] C:\Users\GEORGE\.gradle\caches\transforms-1\files-1.1\firebase-iid-17.0.4.aar\321bfaab2dffd1a4cdf7e5e86a9e192b\AndroidManifest.xml:23:5-67
MERGED from [com.google.firebase:firebase-iid:17.0.4] C:\Users\GEORGE\.gradle\caches\transforms-1\files-1.1\firebase-iid-17.0.4.aar\321bfaab2dffd1a4cdf7e5e86a9e192b\AndroidManifest.xml:23:5-67
	android:name
		ADDED from C:\Users\GEORGE\Documents\REPOSITORIO\varios\Source code\app\src\main\AndroidManifest.xml:4:22-64
application
ADDED from C:\Users\GEORGE\Documents\REPOSITORIO\varios\Source code\app\src\main\AndroidManifest.xml:5:5-215:19
MERGED from [com.android.support:design:28.0.0] C:\Users\GEORGE\.gradle\caches\transforms-1\files-1.1\design-28.0.0.aar\a73c151c2bd289d9ac84adb621582087\AndroidManifest.xml:22:5-20
MERGED from [com.android.support:design:28.0.0] C:\Users\GEORGE\.gradle\caches\transforms-1\files-1.1\design-28.0.0.aar\a73c151c2bd289d9ac84adb621582087\AndroidManifest.xml:22:5-20
MERGED from [com.google.firebase:firebase-messaging:17.3.4] C:\Users\GEORGE\.gradle\caches\transforms-1\files-1.1\firebase-messaging-17.3.4.aar\14247e62492c7f7bae8b8826768b9aaa\AndroidManifest.xml:22:5-35:19
MERGED from [com.google.firebase:firebase-messaging:17.3.4] C:\Users\GEORGE\.gradle\caches\transforms-1\files-1.1\firebase-messaging-17.3.4.aar\14247e62492c7f7bae8b8826768b9aaa\AndroidManifest.xml:22:5-35:19
MERGED from [com.google.firebase:firebase-auth:16.0.5] C:\Users\GEORGE\.gradle\caches\transforms-1\files-1.1\firebase-auth-16.0.5.aar\f55c734f08078d280507d0200513ad44\AndroidManifest.xml:23:5-40:19
MERGED from [com.google.firebase:firebase-auth:16.0.5] C:\Users\GEORGE\.gradle\caches\transforms-1\files-1.1\firebase-auth-16.0.5.aar\f55c734f08078d280507d0200513ad44\AndroidManifest.xml:23:5-40:19
MERGED from [com.google.firebase:firebase-core:16.0.5] C:\Users\GEORGE\.gradle\caches\transforms-1\files-1.1\firebase-core-16.0.5.aar\9c996f03ffc5f5afde9bf0597e0be312\AndroidManifest.xml:7:5-20
MERGED from [com.google.firebase:firebase-core:16.0.5] C:\Users\GEORGE\.gradle\caches\transforms-1\files-1.1\firebase-core-16.0.5.aar\9c996f03ffc5f5afde9bf0597e0be312\AndroidManifest.xml:7:5-20
MERGED from [com.google.firebase:firebase-measurement-connector-impl:17.0.3] C:\Users\GEORGE\.gradle\caches\transforms-1\files-1.1\firebase-measurement-connector-impl-17.0.3.aar\6904fb48ad62615d50ad3c60671389ae\AndroidManifest.xml:26:5-32:19
MERGED from [com.google.firebase:firebase-measurement-connector-impl:17.0.3] C:\Users\GEORGE\.gradle\caches\transforms-1\files-1.1\firebase-measurement-connector-impl-17.0.3.aar\6904fb48ad62615d50ad3c60671389ae\AndroidManifest.xml:26:5-32:19
MERGED from [com.google.firebase:firebase-analytics:16.0.5] C:\Users\GEORGE\.gradle\caches\transforms-1\files-1.1\firebase-analytics-16.0.5.aar\d54f59545f49ba231c84f68dd235645b\AndroidManifest.xml:28:5-53:19
MERGED from [com.google.firebase:firebase-analytics:16.0.5] C:\Users\GEORGE\.gradle\caches\transforms-1\files-1.1\firebase-analytics-16.0.5.aar\d54f59545f49ba231c84f68dd235645b\AndroidManifest.xml:28:5-53:19
MERGED from [com.google.android.gms:play-services-measurement-api:16.0.3] C:\Users\GEORGE\.gradle\caches\transforms-1\files-1.1\play-services-measurement-api-16.0.3.aar\c7f32b77067dd8bf861816c8b2b43c3e\AndroidManifest.xml:22:5-23:19
MERGED from [com.google.android.gms:play-services-measurement-api:16.0.3] C:\Users\GEORGE\.gradle\caches\transforms-1\files-1.1\play-services-measurement-api-16.0.3.aar\c7f32b77067dd8bf861816c8b2b43c3e\AndroidManifest.xml:22:5-23:19
MERGED from [com.google.firebase:firebase-analytics-impl:16.2.3] C:\Users\GEORGE\.gradle\caches\transforms-1\files-1.1\firebase-analytics-impl-16.2.3.aar\f1f286316ab2c198306bf644d03e684c\AndroidManifest.xml:28:5-38:19
MERGED from [com.google.firebase:firebase-analytics-impl:16.2.3] C:\Users\GEORGE\.gradle\caches\transforms-1\files-1.1\firebase-analytics-impl-16.2.3.aar\f1f286316ab2c198306bf644d03e684c\AndroidManifest.xml:28:5-38:19
MERGED from [com.google.firebase:firebase-iid:17.0.4] C:\Users\GEORGE\.gradle\caches\transforms-1\files-1.1\firebase-iid-17.0.4.aar\321bfaab2dffd1a4cdf7e5e86a9e192b\AndroidManifest.xml:28:5-57:19
MERGED from [com.google.firebase:firebase-iid:17.0.4] C:\Users\GEORGE\.gradle\caches\transforms-1\files-1.1\firebase-iid-17.0.4.aar\321bfaab2dffd1a4cdf7e5e86a9e192b\AndroidManifest.xml:28:5-57:19
MERGED from [com.google.firebase:firebase-auth-interop:16.0.1] C:\Users\GEORGE\.gradle\caches\transforms-1\files-1.1\firebase-auth-interop-16.0.1.aar\fd9cebd59f3666940c5c3590e054a578\AndroidManifest.xml:7:5-8:19
MERGED from [com.google.firebase:firebase-auth-interop:16.0.1] C:\Users\GEORGE\.gradle\caches\transforms-1\files-1.1\firebase-auth-interop-16.0.1.aar\fd9cebd59f3666940c5c3590e054a578\AndroidManifest.xml:7:5-8:19
MERGED from [com.google.firebase:firebase-common:16.0.4] C:\Users\GEORGE\.gradle\caches\transforms-1\files-1.1\firebase-common-16.0.4.aar\7261c89572737b21de606748d73f3661\AndroidManifest.xml:9:5-15:19
MERGED from [com.google.firebase:firebase-common:16.0.4] C:\Users\GEORGE\.gradle\caches\transforms-1\files-1.1\firebase-common-16.0.4.aar\7261c89572737b21de606748d73f3661\AndroidManifest.xml:9:5-15:19
MERGED from [com.google.firebase:firebase-iid-interop:16.0.1] C:\Users\GEORGE\.gradle\caches\transforms-1\files-1.1\firebase-iid-interop-16.0.1.aar\7135c7b2e649fbca3680b463e876a435\AndroidManifest.xml:7:5-8:19
MERGED from [com.google.firebase:firebase-iid-interop:16.0.1] C:\Users\GEORGE\.gradle\caches\transforms-1\files-1.1\firebase-iid-interop-16.0.1.aar\7135c7b2e649fbca3680b463e876a435\AndroidManifest.xml:7:5-8:19
MERGED from [com.google.android.gms:play-services-base:16.0.1] C:\Users\GEORGE\.gradle\caches\transforms-1\files-1.1\play-services-base-16.0.1.aar\43f74d7e926959ff60864b18a399daa4\AndroidManifest.xml:22:5-27:19
MERGED from [com.google.android.gms:play-services-base:16.0.1] C:\Users\GEORGE\.gradle\caches\transforms-1\files-1.1\play-services-base-16.0.1.aar\43f74d7e926959ff60864b18a399daa4\AndroidManifest.xml:22:5-27:19
MERGED from [com.google.android.gms:play-services-tasks:16.0.1] C:\Users\GEORGE\.gradle\caches\transforms-1\files-1.1\play-services-tasks-16.0.1.aar\2750a0ed957d48eb02ad81f219745c9b\AndroidManifest.xml:7:5-20
MERGED from [com.google.android.gms:play-services-tasks:16.0.1] C:\Users\GEORGE\.gradle\caches\transforms-1\files-1.1\play-services-tasks-16.0.1.aar\2750a0ed957d48eb02ad81f219745c9b\AndroidManifest.xml:7:5-20
MERGED from [com.google.firebase:firebase-measurement-connector:17.0.1] C:\Users\GEORGE\.gradle\caches\transforms-1\files-1.1\firebase-measurement-connector-17.0.1.aar\afe7ea2684d00037f91b41c1ca14a7ab\AndroidManifest.xml:22:5-23:19
MERGED from [com.google.firebase:firebase-measurement-connector:17.0.1] C:\Users\GEORGE\.gradle\caches\transforms-1\files-1.1\firebase-measurement-connector-17.0.1.aar\afe7ea2684d00037f91b41c1ca14a7ab\AndroidManifest.xml:22:5-23:19
MERGED from [com.google.android.gms:play-services-stats:16.0.1] C:\Users\GEORGE\.gradle\caches\transforms-1\files-1.1\play-services-stats-16.0.1.aar\fbd8e531580148a3fe2469a5b0652bfc\AndroidManifest.xml:7:5-20
MERGED from [com.google.android.gms:play-services-stats:16.0.1] C:\Users\GEORGE\.gradle\caches\transforms-1\files-1.1\play-services-stats-16.0.1.aar\fbd8e531580148a3fe2469a5b0652bfc\AndroidManifest.xml:7:5-20
MERGED from [com.google.android.gms:play-services-measurement-base:16.0.4] C:\Users\GEORGE\.gradle\caches\transforms-1\files-1.1\play-services-measurement-base-16.0.4.aar\fa6c7014fbe507e4f8b8b14db2fe1218\AndroidManifest.xml:7:5-20
MERGED from [com.google.android.gms:play-services-measurement-base:16.0.4] C:\Users\GEORGE\.gradle\caches\transforms-1\files-1.1\play-services-measurement-base-16.0.4.aar\fa6c7014fbe507e4f8b8b14db2fe1218\AndroidManifest.xml:7:5-20
MERGED from [com.google.android.gms:play-services-ads-identifier:16.0.0] C:\Users\GEORGE\.gradle\caches\transforms-1\files-1.1\play-services-ads-identifier-16.0.0.aar\8cc14f57b5c977a5913831ede29d3585\AndroidManifest.xml:22:5-20
MERGED from [com.google.android.gms:play-services-ads-identifier:16.0.0] C:\Users\GEORGE\.gradle\caches\transforms-1\files-1.1\play-services-ads-identifier-16.0.0.aar\8cc14f57b5c977a5913831ede29d3585\AndroidManifest.xml:22:5-20
MERGED from [com.google.android.gms:play-services-basement:16.1.0] C:\Users\GEORGE\.gradle\caches\transforms-1\files-1.1\play-services-basement-16.1.0.aar\a3b0d04da621286d97933358a6f2ca2d\AndroidManifest.xml:22:5-26:19
MERGED from [com.google.android.gms:play-services-basement:16.1.0] C:\Users\GEORGE\.gradle\caches\transforms-1\files-1.1\play-services-basement-16.1.0.aar\a3b0d04da621286d97933358a6f2ca2d\AndroidManifest.xml:22:5-26:19
MERGED from [com.android.support.constraint:constraint-layout:1.1.3] C:\Users\GEORGE\.gradle\caches\transforms-1\files-1.1\constraint-layout-1.1.3.aar\a2b54b7f1ba2d9289e6cddcfae68c601\AndroidManifest.xml:9:5-20
MERGED from [com.android.support.constraint:constraint-layout:1.1.3] C:\Users\GEORGE\.gradle\caches\transforms-1\files-1.1\constraint-layout-1.1.3.aar\a2b54b7f1ba2d9289e6cddcfae68c601\AndroidManifest.xml:9:5-20
MERGED from [com.android.support:support-compat:28.0.0] C:\Users\GEORGE\.gradle\caches\transforms-1\files-1.1\support-compat-28.0.0.aar\7104eb5e2e186082aecb5125d5077a5d\AndroidManifest.xml:22:5-94
MERGED from [com.android.support:support-compat:28.0.0] C:\Users\GEORGE\.gradle\caches\transforms-1\files-1.1\support-compat-28.0.0.aar\7104eb5e2e186082aecb5125d5077a5d\AndroidManifest.xml:22:5-94
MERGED from [com.android.support:versionedparcelable:28.0.0] C:\Users\GEORGE\.gradle\caches\transforms-1\files-1.1\versionedparcelable-28.0.0.aar\781aa78fe9800cf7fa617babf0a4ec98\AndroidManifest.xml:22:5-23:19
MERGED from [com.android.support:versionedparcelable:28.0.0] C:\Users\GEORGE\.gradle\caches\transforms-1\files-1.1\versionedparcelable-28.0.0.aar\781aa78fe9800cf7fa617babf0a4ec98\AndroidManifest.xml:22:5-23:19
	android:version
		ADDED from C:\Users\GEORGE\Documents\REPOSITORIO\varios\Source code\app\src\main\AndroidManifest.xml:10:9-29
	android:appComponentFactory
		ADDED from [com.android.support:support-compat:28.0.0] C:\Users\GEORGE\.gradle\caches\transforms-1\files-1.1\support-compat-28.0.0.aar\7104eb5e2e186082aecb5125d5077a5d\AndroidManifest.xml:22:18-91
	android:supportsRtl
		ADDED from C:\Users\GEORGE\Documents\REPOSITORIO\varios\Source code\app\src\main\AndroidManifest.xml:12:9-35
	android:label
		ADDED from C:\Users\GEORGE\Documents\REPOSITORIO\varios\Source code\app\src\main\AndroidManifest.xml:9:9-41
	android:hardwareAccelerated
		ADDED from C:\Users\GEORGE\Documents\REPOSITORIO\varios\Source code\app\src\main\AndroidManifest.xml:7:9-43
	android:fullBackupContent
		ADDED from C:\Users\GEORGE\Documents\REPOSITORIO\varios\Source code\app\src\main\AndroidManifest.xml:14:9-59
	android:roundIcon
		ADDED from C:\Users\GEORGE\Documents\REPOSITORIO\varios\Source code\app\src\main\AndroidManifest.xml:11:9-48
	android:icon
		ADDED from C:\Users\GEORGE\Documents\REPOSITORIO\varios\Source code\app\src\main\AndroidManifest.xml:8:9-43
	android:allowBackup
		ADDED from C:\Users\GEORGE\Documents\REPOSITORIO\varios\Source code\app\src\main\AndroidManifest.xml:6:9-35
	android:theme
		ADDED from C:\Users\GEORGE\Documents\REPOSITORIO\varios\Source code\app\src\main\AndroidManifest.xml:13:9-40
meta-data#google_analytics_adid_collection_enabled
ADDED from C:\Users\GEORGE\Documents\REPOSITORIO\varios\Source code\app\src\main\AndroidManifest.xml:16:9-100
	android:value
		ADDED from C:\Users\GEORGE\Documents\REPOSITORIO\varios\Source code\app\src\main\AndroidManifest.xml:16:76-97
	android:name
		ADDED from C:\Users\GEORGE\Documents\REPOSITORIO\varios\Source code\app\src\main\AndroidManifest.xml:16:20-75
activity#com.csform.android.uiapptemplate2.MainActivity
ADDED from C:\Users\GEORGE\Documents\REPOSITORIO\varios\Source code\app\src\main\AndroidManifest.xml:18:9-24:20
	android:label
		ADDED from C:\Users\GEORGE\Documents\REPOSITORIO\varios\Source code\app\src\main\AndroidManifest.xml:20:13-45
	android:configChanges
		ADDED from C:\Users\GEORGE\Documents\REPOSITORIO\varios\Source code\app\src\main\AndroidManifest.xml:21:13-59
	android:theme
		ADDED from C:\Users\GEORGE\Documents\REPOSITORIO\varios\Source code\app\src\main\AndroidManifest.xml:22:13-56
	android:name
		ADDED from C:\Users\GEORGE\Documents\REPOSITORIO\varios\Source code\app\src\main\AndroidManifest.xml:19:13-74
activity#com.csform.android.uiapptemplate2.MainSplashScreen
ADDED from C:\Users\GEORGE\Documents\REPOSITORIO\varios\Source code\app\src\main\AndroidManifest.xml:25:9-36:20
	android:label
		ADDED from C:\Users\GEORGE\Documents\REPOSITORIO\varios\Source code\app\src\main\AndroidManifest.xml:29:13-52
	android:theme
		ADDED from C:\Users\GEORGE\Documents\REPOSITORIO\varios\Source code\app\src\main\AndroidManifest.xml:28:13-56
	android:name
		ADDED from C:\Users\GEORGE\Documents\REPOSITORIO\varios\Source code\app\src\main\AndroidManifest.xml:26:13-78
intent-filter#action:name:android.intent.action.MAIN+category:name:android.intent.category.LAUNCHER
ADDED from C:\Users\GEORGE\Documents\REPOSITORIO\varios\Source code\app\src\main\AndroidManifest.xml:30:13-34:29
action#android.intent.action.MAIN
ADDED from C:\Users\GEORGE\Documents\REPOSITORIO\varios\Source code\app\src\main\AndroidManifest.xml:31:17-69
	android:name
		ADDED from C:\Users\GEORGE\Documents\REPOSITORIO\varios\Source code\app\src\main\AndroidManifest.xml:31:25-66
category#android.intent.category.LAUNCHER
ADDED from C:\Users\GEORGE\Documents\REPOSITORIO\varios\Source code\app\src\main\AndroidManifest.xml:33:17-77
	android:name
		ADDED from C:\Users\GEORGE\Documents\REPOSITORIO\varios\Source code\app\src\main\AndroidManifest.xml:33:27-74
activity#com.csform.android.uiapptemplate2.WizzardIntro
ADDED from C:\Users\GEORGE\Documents\REPOSITORIO\varios\Source code\app\src\main\AndroidManifest.xml:37:9-39:50
	android:theme
		ADDED from C:\Users\GEORGE\Documents\REPOSITORIO\varios\Source code\app\src\main\AndroidManifest.xml:39:13-47
	android:name
		ADDED from C:\Users\GEORGE\Documents\REPOSITORIO\varios\Source code\app\src\main\AndroidManifest.xml:38:13-74
activity#com.csform.android.uiapptemplate2.ListSwipeableWithButton
ADDED from C:\Users\GEORGE\Documents\REPOSITORIO\varios\Source code\app\src\main\AndroidManifest.xml:43:9-46:61
	android:label
		ADDED from C:\Users\GEORGE\Documents\REPOSITORIO\varios\Source code\app\src\main\AndroidManifest.xml:46:13-59
	android:theme
		ADDED from C:\Users\GEORGE\Documents\REPOSITORIO\varios\Source code\app\src\main\AndroidManifest.xml:45:13-56
	android:name
		ADDED from C:\Users\GEORGE\Documents\REPOSITORIO\varios\Source code\app\src\main\AndroidManifest.xml:44:13-85
activity#com.csform.android.uiapptemplate2.ListsExpandable
ADDED from C:\Users\GEORGE\Documents\REPOSITORIO\varios\Source code\app\src\main\AndroidManifest.xml:48:9-51:66
	android:label
		ADDED from C:\Users\GEORGE\Documents\REPOSITORIO\varios\Source code\app\src\main\AndroidManifest.xml:51:13-64
	android:theme
		ADDED from C:\Users\GEORGE\Documents\REPOSITORIO\varios\Source code\app\src\main\AndroidManifest.xml:50:13-56
	android:name
		ADDED from C:\Users\GEORGE\Documents\REPOSITORIO\varios\Source code\app\src\main\AndroidManifest.xml:49:13-77
activity#com.csform.android.uiapptemplate2.ListsDraggable
ADDED from C:\Users\GEORGE\Documents\REPOSITORIO\varios\Source code\app\src\main\AndroidManifest.xml:53:9-56:66
	android:label
		ADDED from C:\Users\GEORGE\Documents\REPOSITORIO\varios\Source code\app\src\main\AndroidManifest.xml:56:13-64
	android:theme
		ADDED from C:\Users\GEORGE\Documents\REPOSITORIO\varios\Source code\app\src\main\AndroidManifest.xml:55:13-56
	android:name
		ADDED from C:\Users\GEORGE\Documents\REPOSITORIO\varios\Source code\app\src\main\AndroidManifest.xml:54:13-76
activity#com.csform.android.uiapptemplate2.ListsExpandableDraggableSwipeable
ADDED from C:\Users\GEORGE\Documents\REPOSITORIO\varios\Source code\app\src\main\AndroidManifest.xml:58:9-61:62
	android:label
		ADDED from C:\Users\GEORGE\Documents\REPOSITORIO\varios\Source code\app\src\main\AndroidManifest.xml:61:13-60
	android:theme
		ADDED from C:\Users\GEORGE\Documents\REPOSITORIO\varios\Source code\app\src\main\AndroidManifest.xml:60:13-56
	android:name
		ADDED from C:\Users\GEORGE\Documents\REPOSITORIO\varios\Source code\app\src\main\AndroidManifest.xml:59:13-95
activity#com.csform.android.uiapptemplate2.ListItemDetails
ADDED from C:\Users\GEORGE\Documents\REPOSITORIO\varios\Source code\app\src\main\AndroidManifest.xml:64:9-67:14
	android:theme
		ADDED from C:\Users\GEORGE\Documents\REPOSITORIO\varios\Source code\app\src\main\AndroidManifest.xml:66:13-56
	android:name
		ADDED from C:\Users\GEORGE\Documents\REPOSITORIO\varios\Source code\app\src\main\AndroidManifest.xml:65:13-77
activity#com.csform.android.uiapptemplate2.ListItemDetailsSingle
ADDED from C:\Users\GEORGE\Documents\REPOSITORIO\varios\Source code\app\src\main\AndroidManifest.xml:68:9-70:59
	android:theme
		ADDED from C:\Users\GEORGE\Documents\REPOSITORIO\varios\Source code\app\src\main\AndroidManifest.xml:70:13-56
	android:name
		ADDED from C:\Users\GEORGE\Documents\REPOSITORIO\varios\Source code\app\src\main\AndroidManifest.xml:69:13-83
activity#com.csform.android.uiapptemplate2.TabsRoundIndicator
ADDED from C:\Users\GEORGE\Documents\REPOSITORIO\varios\Source code\app\src\main\AndroidManifest.xml:72:9-75:58
	android:configChanges
		ADDED from C:\Users\GEORGE\Documents\REPOSITORIO\varios\Source code\app\src\main\AndroidManifest.xml:74:13-74
	android:theme
		ADDED from C:\Users\GEORGE\Documents\REPOSITORIO\varios\Source code\app\src\main\AndroidManifest.xml:75:13-56
	android:name
		ADDED from C:\Users\GEORGE\Documents\REPOSITORIO\varios\Source code\app\src\main\AndroidManifest.xml:73:13-80
activity#com.csform.android.uiapptemplate2.TabsLineIndicator
ADDED from C:\Users\GEORGE\Documents\REPOSITORIO\varios\Source code\app\src\main\AndroidManifest.xml:76:9-79:76
	android:configChanges
		ADDED from C:\Users\GEORGE\Documents\REPOSITORIO\varios\Source code\app\src\main\AndroidManifest.xml:79:13-74
	android:theme
		ADDED from C:\Users\GEORGE\Documents\REPOSITORIO\varios\Source code\app\src\main\AndroidManifest.xml:78:13-56
	android:name
		ADDED from C:\Users\GEORGE\Documents\REPOSITORIO\varios\Source code\app\src\main\AndroidManifest.xml:77:13-79
activity#com.csform.android.uiapptemplate2.GalleryFullScreen
ADDED from C:\Users\GEORGE\Documents\REPOSITORIO\varios\Source code\app\src\main\AndroidManifest.xml:80:9-83:76
	android:configChanges
		ADDED from C:\Users\GEORGE\Documents\REPOSITORIO\varios\Source code\app\src\main\AndroidManifest.xml:83:13-74
	android:theme
		ADDED from C:\Users\GEORGE\Documents\REPOSITORIO\varios\Source code\app\src\main\AndroidManifest.xml:82:13-56
	android:name
		ADDED from C:\Users\GEORGE\Documents\REPOSITORIO\varios\Source code\app\src\main\AndroidManifest.xml:81:13-79
activity#com.csform.android.uiapptemplate2.GalleryCategories
ADDED from C:\Users\GEORGE\Documents\REPOSITORIO\varios\Source code\app\src\main\AndroidManifest.xml:84:9-86:58
	android:theme
		ADDED from C:\Users\GEORGE\Documents\REPOSITORIO\varios\Source code\app\src\main\AndroidManifest.xml:86:13-56
	android:name
		ADDED from C:\Users\GEORGE\Documents\REPOSITORIO\varios\Source code\app\src\main\AndroidManifest.xml:85:13-79
activity#com.csform.android.uiapptemplate2.GalleryCategory
ADDED from C:\Users\GEORGE\Documents\REPOSITORIO\varios\Source code\app\src\main\AndroidManifest.xml:87:9-89:58
	android:theme
		ADDED from C:\Users\GEORGE\Documents\REPOSITORIO\varios\Source code\app\src\main\AndroidManifest.xml:89:13-56
	android:name
		ADDED from C:\Users\GEORGE\Documents\REPOSITORIO\varios\Source code\app\src\main\AndroidManifest.xml:88:13-77
activity#com.csform.android.uiapptemplate2.ValidationForgot
ADDED from C:\Users\GEORGE\Documents\REPOSITORIO\varios\Source code\app\src\main\AndroidManifest.xml:91:9-95:51
	android:configChanges
		ADDED from C:\Users\GEORGE\Documents\REPOSITORIO\varios\Source code\app\src\main\AndroidManifest.xml:94:13-74
	android:theme
		ADDED from C:\Users\GEORGE\Documents\REPOSITORIO\varios\Source code\app\src\main\AndroidManifest.xml:95:13-49
	android:name
		ADDED from C:\Users\GEORGE\Documents\REPOSITORIO\varios\Source code\app\src\main\AndroidManifest.xml:93:13-78
activity#com.csform.android.uiapptemplate2.ValidationRegister
ADDED from C:\Users\GEORGE\Documents\REPOSITORIO\varios\Source code\app\src\main\AndroidManifest.xml:96:9-99:51
	android:configChanges
		ADDED from C:\Users\GEORGE\Documents\REPOSITORIO\varios\Source code\app\src\main\AndroidManifest.xml:98:13-74
	android:theme
		ADDED from C:\Users\GEORGE\Documents\REPOSITORIO\varios\Source code\app\src\main\AndroidManifest.xml:99:13-49
	android:name
		ADDED from C:\Users\GEORGE\Documents\REPOSITORIO\varios\Source code\app\src\main\AndroidManifest.xml:97:13-80
activity#com.csform.android.uiapptemplate2.ValidationLogin
ADDED from C:\Users\GEORGE\Documents\REPOSITORIO\varios\Source code\app\src\main\AndroidManifest.xml:100:9-103:51
	android:configChanges
		ADDED from C:\Users\GEORGE\Documents\REPOSITORIO\varios\Source code\app\src\main\AndroidManifest.xml:102:13-74
	android:theme
		ADDED from C:\Users\GEORGE\Documents\REPOSITORIO\varios\Source code\app\src\main\AndroidManifest.xml:103:13-49
	android:name
		ADDED from C:\Users\GEORGE\Documents\REPOSITORIO\varios\Source code\app\src\main\AndroidManifest.xml:101:13-77
activity#com.csform.android.uiapptemplate2.DialogInfo
ADDED from C:\Users\GEORGE\Documents\REPOSITORIO\varios\Source code\app\src\main\AndroidManifest.xml:105:9-108:20
	android:theme
		ADDED from C:\Users\GEORGE\Documents\REPOSITORIO\varios\Source code\app\src\main\AndroidManifest.xml:107:13-49
	android:name
		ADDED from C:\Users\GEORGE\Documents\REPOSITORIO\varios\Source code\app\src\main\AndroidManifest.xml:106:13-72
activity#com.csform.android.uiapptemplate2.DialogSubscribe
ADDED from C:\Users\GEORGE\Documents\REPOSITORIO\varios\Source code\app\src\main\AndroidManifest.xml:109:9-112:20
	android:theme
		ADDED from C:\Users\GEORGE\Documents\REPOSITORIO\varios\Source code\app\src\main\AndroidManifest.xml:111:13-49
	android:name
		ADDED from C:\Users\GEORGE\Documents\REPOSITORIO\varios\Source code\app\src\main\AndroidManifest.xml:110:13-77
activity#com.csform.android.uiapptemplate2.DialogWarning
ADDED from C:\Users\GEORGE\Documents\REPOSITORIO\varios\Source code\app\src\main\AndroidManifest.xml:113:9-116:20
	android:theme
		ADDED from C:\Users\GEORGE\Documents\REPOSITORIO\varios\Source code\app\src\main\AndroidManifest.xml:115:13-50
	android:name
		ADDED from C:\Users\GEORGE\Documents\REPOSITORIO\varios\Source code\app\src\main\AndroidManifest.xml:114:13-75
activity#com.csform.android.uiapptemplate2.SmallComponentsRadio
ADDED from C:\Users\GEORGE\Documents\REPOSITORIO\varios\Source code\app\src\main\AndroidManifest.xml:118:9-121:20
	android:theme
		ADDED from C:\Users\GEORGE\Documents\REPOSITORIO\varios\Source code\app\src\main\AndroidManifest.xml:120:13-56
	android:name
		ADDED from C:\Users\GEORGE\Documents\REPOSITORIO\varios\Source code\app\src\main\AndroidManifest.xml:119:13-82
activity#com.csform.android.uiapptemplate2.SmallComponentsCheck
ADDED from C:\Users\GEORGE\Documents\REPOSITORIO\varios\Source code\app\src\main\AndroidManifest.xml:122:9-125:20
	android:theme
		ADDED from C:\Users\GEORGE\Documents\REPOSITORIO\varios\Source code\app\src\main\AndroidManifest.xml:124:13-56
	android:name
		ADDED from C:\Users\GEORGE\Documents\REPOSITORIO\varios\Source code\app\src\main\AndroidManifest.xml:123:13-82
activity#com.csform.android.uiapptemplate2.SmallComponentsSeek
ADDED from C:\Users\GEORGE\Documents\REPOSITORIO\varios\Source code\app\src\main\AndroidManifest.xml:126:9-129:20
	android:theme
		ADDED from C:\Users\GEORGE\Documents\REPOSITORIO\varios\Source code\app\src\main\AndroidManifest.xml:128:13-56
	android:name
		ADDED from C:\Users\GEORGE\Documents\REPOSITORIO\varios\Source code\app\src\main\AndroidManifest.xml:127:13-81
activity#com.csform.android.uiapptemplate2.SmallComponentsProgress
ADDED from C:\Users\GEORGE\Documents\REPOSITORIO\varios\Source code\app\src\main\AndroidManifest.xml:130:9-133:20
	android:theme
		ADDED from C:\Users\GEORGE\Documents\REPOSITORIO\varios\Source code\app\src\main\AndroidManifest.xml:132:13-56
	android:name
		ADDED from C:\Users\GEORGE\Documents\REPOSITORIO\varios\Source code\app\src\main\AndroidManifest.xml:131:13-85
activity#com.csform.android.uiapptemplate2.SmallComponentsDropDown
ADDED from C:\Users\GEORGE\Documents\REPOSITORIO\varios\Source code\app\src\main\AndroidManifest.xml:134:9-137:20
	android:theme
		ADDED from C:\Users\GEORGE\Documents\REPOSITORIO\varios\Source code\app\src\main\AndroidManifest.xml:136:13-44
	android:name
		ADDED from C:\Users\GEORGE\Documents\REPOSITORIO\varios\Source code\app\src\main\AndroidManifest.xml:135:13-85
activity#com.csform.android.uiapptemplate2.BaseActivity
ADDED from C:\Users\GEORGE\Documents\REPOSITORIO\varios\Source code\app\src\main\AndroidManifest.xml:138:9-141:20
	android:theme
		ADDED from C:\Users\GEORGE\Documents\REPOSITORIO\varios\Source code\app\src\main\AndroidManifest.xml:140:13-69
	android:name
		ADDED from C:\Users\GEORGE\Documents\REPOSITORIO\varios\Source code\app\src\main\AndroidManifest.xml:139:13-74
activity#com.csform.android.uiapptemplate2.BaseActivityTransparentToolbar
ADDED from C:\Users\GEORGE\Documents\REPOSITORIO\varios\Source code\app\src\main\AndroidManifest.xml:143:9-147:20
	android:configChanges
		ADDED from C:\Users\GEORGE\Documents\REPOSITORIO\varios\Source code\app\src\main\AndroidManifest.xml:145:13-74
	android:theme
		ADDED from C:\Users\GEORGE\Documents\REPOSITORIO\varios\Source code\app\src\main\AndroidManifest.xml:146:13-69
	android:name
		ADDED from C:\Users\GEORGE\Documents\REPOSITORIO\varios\Source code\app\src\main\AndroidManifest.xml:144:13-92
activity#com.csform.android.uiapptemplate2.CardsRate
ADDED from C:\Users\GEORGE\Documents\REPOSITORIO\varios\Source code\app\src\main\AndroidManifest.xml:152:9-156:20
	android:parentActivityName
		ADDED from C:\Users\GEORGE\Documents\REPOSITORIO\varios\Source code\app\src\main\AndroidManifest.xml:155:13-88
	android:theme
		ADDED from C:\Users\GEORGE\Documents\REPOSITORIO\varios\Source code\app\src\main\AndroidManifest.xml:154:13-56
	android:name
		ADDED from C:\Users\GEORGE\Documents\REPOSITORIO\varios\Source code\app\src\main\AndroidManifest.xml:153:13-71
activity#com.csform.android.uiapptemplate2.CardsFollow
ADDED from C:\Users\GEORGE\Documents\REPOSITORIO\varios\Source code\app\src\main\AndroidManifest.xml:157:9-161:20
	android:parentActivityName
		ADDED from C:\Users\GEORGE\Documents\REPOSITORIO\varios\Source code\app\src\main\AndroidManifest.xml:160:13-88
	android:theme
		ADDED from C:\Users\GEORGE\Documents\REPOSITORIO\varios\Source code\app\src\main\AndroidManifest.xml:159:13-56
	android:name
		ADDED from C:\Users\GEORGE\Documents\REPOSITORIO\varios\Source code\app\src\main\AndroidManifest.xml:158:13-73
activity#com.csform.android.uiapptemplate2.CardsProfile
ADDED from C:\Users\GEORGE\Documents\REPOSITORIO\varios\Source code\app\src\main\AndroidManifest.xml:165:9-169:20
	android:parentActivityName
		ADDED from C:\Users\GEORGE\Documents\REPOSITORIO\varios\Source code\app\src\main\AndroidManifest.xml:168:13-88
	android:theme
		ADDED from C:\Users\GEORGE\Documents\REPOSITORIO\varios\Source code\app\src\main\AndroidManifest.xml:167:13-56
	android:name
		ADDED from C:\Users\GEORGE\Documents\REPOSITORIO\varios\Source code\app\src\main\AndroidManifest.xml:166:13-74
activity#com.csform.android.uiapptemplate2.SearchExample
ADDED from C:\Users\GEORGE\Documents\REPOSITORIO\varios\Source code\app\src\main\AndroidManifest.xml:171:9-175:20
	android:parentActivityName
		ADDED from C:\Users\GEORGE\Documents\REPOSITORIO\varios\Source code\app\src\main\AndroidManifest.xml:173:13-88
	android:theme
		ADDED from C:\Users\GEORGE\Documents\REPOSITORIO\varios\Source code\app\src\main\AndroidManifest.xml:172:13-56
	android:name
		ADDED from C:\Users\GEORGE\Documents\REPOSITORIO\varios\Source code\app\src\main\AndroidManifest.xml:171:19-81
activity#com.csform.android.uiapptemplate2.OnboardingWizzards
ADDED from C:\Users\GEORGE\Documents\REPOSITORIO\varios\Source code\app\src\main\AndroidManifest.xml:177:9-179:50
	android:theme
		ADDED from C:\Users\GEORGE\Documents\REPOSITORIO\varios\Source code\app\src\main\AndroidManifest.xml:179:13-47
	android:name
		ADDED from C:\Users\GEORGE\Documents\REPOSITORIO\varios\Source code\app\src\main\AndroidManifest.xml:178:13-80
activity#com.csform.android.uiapptemplate2.BaseActivityParallax
ADDED from C:\Users\GEORGE\Documents\REPOSITORIO\varios\Source code\app\src\main\AndroidManifest.xml:180:9-183:20
	android:theme
		ADDED from C:\Users\GEORGE\Documents\REPOSITORIO\varios\Source code\app\src\main\AndroidManifest.xml:182:13-69
	android:name
		ADDED from C:\Users\GEORGE\Documents\REPOSITORIO\varios\Source code\app\src\main\AndroidManifest.xml:181:13-82
activity#com.csform.android.uiapptemplate2.ParallaxHeader
ADDED from C:\Users\GEORGE\Documents\REPOSITORIO\varios\Source code\app\src\main\AndroidManifest.xml:184:9-186:55
	android:theme
		ADDED from C:\Users\GEORGE\Documents\REPOSITORIO\varios\Source code\app\src\main\AndroidManifest.xml:186:9-52
	android:name
		ADDED from C:\Users\GEORGE\Documents\REPOSITORIO\varios\Source code\app\src\main\AndroidManifest.xml:185:9-72
activity#com.csform.android.uiapptemplate2.BaseActivityCardsOverHeader
ADDED from C:\Users\GEORGE\Documents\REPOSITORIO\varios\Source code\app\src\main\AndroidManifest.xml:187:9-190:20
	android:theme
		ADDED from C:\Users\GEORGE\Documents\REPOSITORIO\varios\Source code\app\src\main\AndroidManifest.xml:189:13-69
	android:name
		ADDED from C:\Users\GEORGE\Documents\REPOSITORIO\varios\Source code\app\src\main\AndroidManifest.xml:188:13-89
activity#com.csform.android.uiapptemplate2.CardsOverHeader
ADDED from C:\Users\GEORGE\Documents\REPOSITORIO\varios\Source code\app\src\main\AndroidManifest.xml:191:9-193:55
	android:theme
		ADDED from C:\Users\GEORGE\Documents\REPOSITORIO\varios\Source code\app\src\main\AndroidManifest.xml:193:9-52
	android:name
		ADDED from C:\Users\GEORGE\Documents\REPOSITORIO\varios\Source code\app\src\main\AndroidManifest.xml:192:9-73
activity#com.csform.android.uiapptemplate2.SplashScreensActivity1
ADDED from C:\Users\GEORGE\Documents\REPOSITORIO\varios\Source code\app\src\main\AndroidManifest.xml:196:9-93
	android:name
		ADDED from C:\Users\GEORGE\Documents\REPOSITORIO\varios\Source code\app\src\main\AndroidManifest.xml:196:19-90
activity#com.csform.android.uiapptemplate2.SplashScreensActivity2
ADDED from C:\Users\GEORGE\Documents\REPOSITORIO\varios\Source code\app\src\main\AndroidManifest.xml:197:9-93
	android:name
		ADDED from C:\Users\GEORGE\Documents\REPOSITORIO\varios\Source code\app\src\main\AndroidManifest.xml:197:19-90
activity#com.csform.android.uiapptemplate2.DialogSubscribeMailChimp
ADDED from C:\Users\GEORGE\Documents\REPOSITORIO\varios\Source code\app\src\main\AndroidManifest.xml:199:9-202:20
	android:theme
		ADDED from C:\Users\GEORGE\Documents\REPOSITORIO\varios\Source code\app\src\main\AndroidManifest.xml:201:13-49
	android:name
		ADDED from C:\Users\GEORGE\Documents\REPOSITORIO\varios\Source code\app\src\main\AndroidManifest.xml:200:13-86
meta-data#com.google.firebase.messaging.default_notification_icon
ADDED from C:\Users\GEORGE\Documents\REPOSITORIO\varios\Source code\app\src\main\AndroidManifest.xml:204:9-206:54
	android:resource
		ADDED from C:\Users\GEORGE\Documents\REPOSITORIO\varios\Source code\app\src\main\AndroidManifest.xml:206:13-51
	android:name
		ADDED from C:\Users\GEORGE\Documents\REPOSITORIO\varios\Source code\app\src\main\AndroidManifest.xml:205:13-83
service#com.csform.android.uiapptemplate2.utils.MyFirebaseMessagingService
ADDED from C:\Users\GEORGE\Documents\REPOSITORIO\varios\Source code\app\src\main\AndroidManifest.xml:207:9-212:19
	android:name
		ADDED from C:\Users\GEORGE\Documents\REPOSITORIO\varios\Source code\app\src\main\AndroidManifest.xml:208:13-94
intent-filter#action:name:com.google.firebase.MESSAGING_EVENT
ADDED from C:\Users\GEORGE\Documents\REPOSITORIO\varios\Source code\app\src\main\AndroidManifest.xml:209:13-211:29
action#com.google.firebase.MESSAGING_EVENT
ADDED from C:\Users\GEORGE\Documents\REPOSITORIO\varios\Source code\app\src\main\AndroidManifest.xml:210:17-77
	android:name
		ADDED from C:\Users\GEORGE\Documents\REPOSITORIO\varios\Source code\app\src\main\AndroidManifest.xml:210:25-75
uses-sdk
INJECTED from C:\Users\GEORGE\Documents\REPOSITORIO\varios\Source code\app\src\main\AndroidManifest.xml reason: use-sdk injection requested
INJECTED from C:\Users\GEORGE\Documents\REPOSITORIO\varios\Source code\app\src\main\AndroidManifest.xml
INJECTED from C:\Users\GEORGE\Documents\REPOSITORIO\varios\Source code\app\src\main\AndroidManifest.xml
MERGED from [com.android.databinding:adapters:3.3.2] C:\Users\GEORGE\.gradle\caches\transforms-1\files-1.1\adapters-3.3.2.aar\b87adfd547629979adb82b7fc4c611c8\AndroidManifest.xml:22:5-44
MERGED from [com.android.databinding:adapters:3.3.2] C:\Users\GEORGE\.gradle\caches\transforms-1\files-1.1\adapters-3.3.2.aar\b87adfd547629979adb82b7fc4c611c8\AndroidManifest.xml:22:5-44
MERGED from [com.android.databinding:library:3.3.2] C:\Users\GEORGE\.gradle\caches\transforms-1\files-1.1\library-3.3.2.aar\ff6db8d324e981d93fb5411e2e88d189\AndroidManifest.xml:22:5-44
MERGED from [com.android.databinding:library:3.3.2] C:\Users\GEORGE\.gradle\caches\transforms-1\files-1.1\library-3.3.2.aar\ff6db8d324e981d93fb5411e2e88d189\AndroidManifest.xml:22:5-44
MERGED from [com.android.support:design:28.0.0] C:\Users\GEORGE\.gradle\caches\transforms-1\files-1.1\design-28.0.0.aar\a73c151c2bd289d9ac84adb621582087\AndroidManifest.xml:20:5-44
MERGED from [com.android.support:design:28.0.0] C:\Users\GEORGE\.gradle\caches\transforms-1\files-1.1\design-28.0.0.aar\a73c151c2bd289d9ac84adb621582087\AndroidManifest.xml:20:5-44
MERGED from [com.h6ah4i.android.widget.advrecyclerview:advrecyclerview:0.11.0] C:\Users\GEORGE\.gradle\caches\transforms-1\files-1.1\advrecyclerview-0.11.0.aar\514bad4c7b0069c176a4d171c7d0c98a\AndroidManifest.xml:23:5-25:41
MERGED from [com.h6ah4i.android.widget.advrecyclerview:advrecyclerview:0.11.0] C:\Users\GEORGE\.gradle\caches\transforms-1\files-1.1\advrecyclerview-0.11.0.aar\514bad4c7b0069c176a4d171c7d0c98a\AndroidManifest.xml:23:5-25:41
MERGED from [com.heinrichreimersoftware:material-intro:1.6] C:\Users\GEORGE\.gradle\caches\transforms-1\files-1.1\material-intro-1.6.aar\1f91c0a7fe2c73dd0d683045652cb348\AndroidManifest.xml:8:5-10:41
MERGED from [com.heinrichreimersoftware:material-intro:1.6] C:\Users\GEORGE\.gradle\caches\transforms-1\files-1.1\material-intro-1.6.aar\1f91c0a7fe2c73dd0d683045652cb348\AndroidManifest.xml:8:5-10:41
MERGED from [com.android.support:appcompat-v7:28.0.0] C:\Users\GEORGE\.gradle\caches\transforms-1\files-1.1\appcompat-v7-28.0.0.aar\adf75b1cf53731300bd50906ab9fc7df\AndroidManifest.xml:20:5-44
MERGED from [com.android.support:appcompat-v7:28.0.0] C:\Users\GEORGE\.gradle\caches\transforms-1\files-1.1\appcompat-v7-28.0.0.aar\adf75b1cf53731300bd50906ab9fc7df\AndroidManifest.xml:20:5-44
MERGED from [com.google.firebase:firebase-messaging:17.3.4] C:\Users\GEORGE\.gradle\caches\transforms-1\files-1.1\firebase-messaging-17.3.4.aar\14247e62492c7f7bae8b8826768b9aaa\AndroidManifest.xml:20:5-44
MERGED from [com.google.firebase:firebase-messaging:17.3.4] C:\Users\GEORGE\.gradle\caches\transforms-1\files-1.1\firebase-messaging-17.3.4.aar\14247e62492c7f7bae8b8826768b9aaa\AndroidManifest.xml:20:5-44
MERGED from [com.google.firebase:firebase-database:16.0.5] C:\Users\GEORGE\.gradle\caches\transforms-1\files-1.1\firebase-database-16.0.5.aar\afbae510805609010551428e4623b014\AndroidManifest.xml:18:5-20:41
MERGED from [com.google.firebase:firebase-database:16.0.5] C:\Users\GEORGE\.gradle\caches\transforms-1\files-1.1\firebase-database-16.0.5.aar\afbae510805609010551428e4623b014\AndroidManifest.xml:18:5-20:41
MERGED from [com.google.firebase:firebase-auth:16.0.5] C:\Users\GEORGE\.gradle\caches\transforms-1\files-1.1\firebase-auth-16.0.5.aar\f55c734f08078d280507d0200513ad44\AndroidManifest.xml:21:5-44
MERGED from [com.google.firebase:firebase-auth:16.0.5] C:\Users\GEORGE\.gradle\caches\transforms-1\files-1.1\firebase-auth-16.0.5.aar\f55c734f08078d280507d0200513ad44\AndroidManifest.xml:21:5-44
MERGED from [com.google.firebase:firebase-storage:16.0.5] C:\Users\GEORGE\.gradle\caches\transforms-1\files-1.1\firebase-storage-16.0.5.aar\b6eec2d5dc5d9deb1ed2b67d3152c58b\AndroidManifest.xml:19:5-21:41
MERGED from [com.google.firebase:firebase-storage:16.0.5] C:\Users\GEORGE\.gradle\caches\transforms-1\files-1.1\firebase-storage-16.0.5.aar\b6eec2d5dc5d9deb1ed2b67d3152c58b\AndroidManifest.xml:19:5-21:41
MERGED from [com.google.firebase:firebase-core:16.0.5] C:\Users\GEORGE\.gradle\caches\transforms-1\files-1.1\firebase-core-16.0.5.aar\9c996f03ffc5f5afde9bf0597e0be312\AndroidManifest.xml:5:5-44
MERGED from [com.google.firebase:firebase-core:16.0.5] C:\Users\GEORGE\.gradle\caches\transforms-1\files-1.1\firebase-core-16.0.5.aar\9c996f03ffc5f5afde9bf0597e0be312\AndroidManifest.xml:5:5-44
MERGED from [com.google.firebase:firebase-measurement-connector-impl:17.0.3] C:\Users\GEORGE\.gradle\caches\transforms-1\files-1.1\firebase-measurement-connector-impl-17.0.3.aar\6904fb48ad62615d50ad3c60671389ae\AndroidManifest.xml:20:5-44
MERGED from [com.google.firebase:firebase-measurement-connector-impl:17.0.3] C:\Users\GEORGE\.gradle\caches\transforms-1\files-1.1\firebase-measurement-connector-impl-17.0.3.aar\6904fb48ad62615d50ad3c60671389ae\AndroidManifest.xml:20:5-44
MERGED from [com.google.firebase:firebase-analytics:16.0.5] C:\Users\GEORGE\.gradle\caches\transforms-1\files-1.1\firebase-analytics-16.0.5.aar\d54f59545f49ba231c84f68dd235645b\AndroidManifest.xml:20:5-44
MERGED from [com.google.firebase:firebase-analytics:16.0.5] C:\Users\GEORGE\.gradle\caches\transforms-1\files-1.1\firebase-analytics-16.0.5.aar\d54f59545f49ba231c84f68dd235645b\AndroidManifest.xml:20:5-44
MERGED from [com.google.android.gms:play-services-measurement-api:16.0.3] C:\Users\GEORGE\.gradle\caches\transforms-1\files-1.1\play-services-measurement-api-16.0.3.aar\c7f32b77067dd8bf861816c8b2b43c3e\AndroidManifest.xml:20:5-44
MERGED from [com.google.android.gms:play-services-measurement-api:16.0.3] C:\Users\GEORGE\.gradle\caches\transforms-1\files-1.1\play-services-measurement-api-16.0.3.aar\c7f32b77067dd8bf861816c8b2b43c3e\AndroidManifest.xml:20:5-44
MERGED from [com.google.firebase:firebase-analytics-impl:16.2.3] C:\Users\GEORGE\.gradle\caches\transforms-1\files-1.1\firebase-analytics-impl-16.2.3.aar\f1f286316ab2c198306bf644d03e684c\AndroidManifest.xml:20:5-44
MERGED from [com.google.firebase:firebase-analytics-impl:16.2.3] C:\Users\GEORGE\.gradle\caches\transforms-1\files-1.1\firebase-analytics-impl-16.2.3.aar\f1f286316ab2c198306bf644d03e684c\AndroidManifest.xml:20:5-44
MERGED from [com.google.firebase:firebase-iid:17.0.4] C:\Users\GEORGE\.gradle\caches\transforms-1\files-1.1\firebase-iid-17.0.4.aar\321bfaab2dffd1a4cdf7e5e86a9e192b\AndroidManifest.xml:20:5-44
MERGED from [com.google.firebase:firebase-iid:17.0.4] C:\Users\GEORGE\.gradle\caches\transforms-1\files-1.1\firebase-iid-17.0.4.aar\321bfaab2dffd1a4cdf7e5e86a9e192b\AndroidManifest.xml:20:5-44
MERGED from [com.google.firebase:firebase-auth-interop:16.0.1] C:\Users\GEORGE\.gradle\caches\transforms-1\files-1.1\firebase-auth-interop-16.0.1.aar\fd9cebd59f3666940c5c3590e054a578\AndroidManifest.xml:5:5-44
MERGED from [com.google.firebase:firebase-auth-interop:16.0.1] C:\Users\GEORGE\.gradle\caches\transforms-1\files-1.1\firebase-auth-interop-16.0.1.aar\fd9cebd59f3666940c5c3590e054a578\AndroidManifest.xml:5:5-44
MERGED from [com.google.firebase:firebase-common:16.0.4] C:\Users\GEORGE\.gradle\caches\transforms-1\files-1.1\firebase-common-16.0.4.aar\7261c89572737b21de606748d73f3661\AndroidManifest.xml:5:5-7:41
MERGED from [com.google.firebase:firebase-common:16.0.4] C:\Users\GEORGE\.gradle\caches\transforms-1\files-1.1\firebase-common-16.0.4.aar\7261c89572737b21de606748d73f3661\AndroidManifest.xml:5:5-7:41
MERGED from [com.google.android.gms:play-services-flags:16.0.1] C:\Users\GEORGE\.gradle\caches\transforms-1\files-1.1\play-services-flags-16.0.1.aar\874f2bebf806db3d5fd72944e14f2e6e\AndroidManifest.xml:20:5-44
MERGED from [com.google.android.gms:play-services-flags:16.0.1] C:\Users\GEORGE\.gradle\caches\transforms-1\files-1.1\play-services-flags-16.0.1.aar\874f2bebf806db3d5fd72944e14f2e6e\AndroidManifest.xml:20:5-44
MERGED from [com.google.firebase:firebase-iid-interop:16.0.1] C:\Users\GEORGE\.gradle\caches\transforms-1\files-1.1\firebase-iid-interop-16.0.1.aar\7135c7b2e649fbca3680b463e876a435\AndroidManifest.xml:5:5-44
MERGED from [com.google.firebase:firebase-iid-interop:16.0.1] C:\Users\GEORGE\.gradle\caches\transforms-1\files-1.1\firebase-iid-interop-16.0.1.aar\7135c7b2e649fbca3680b463e876a435\AndroidManifest.xml:5:5-44
MERGED from [com.google.android.gms:play-services-base:16.0.1] C:\Users\GEORGE\.gradle\caches\transforms-1\files-1.1\play-services-base-16.0.1.aar\43f74d7e926959ff60864b18a399daa4\AndroidManifest.xml:20:5-44
MERGED from [com.google.android.gms:play-services-base:16.0.1] C:\Users\GEORGE\.gradle\caches\transforms-1\files-1.1\play-services-base-16.0.1.aar\43f74d7e926959ff60864b18a399daa4\AndroidManifest.xml:20:5-44
MERGED from [com.google.android.gms:play-services-tasks:16.0.1] C:\Users\GEORGE\.gradle\caches\transforms-1\files-1.1\play-services-tasks-16.0.1.aar\2750a0ed957d48eb02ad81f219745c9b\AndroidManifest.xml:5:5-44
MERGED from [com.google.android.gms:play-services-tasks:16.0.1] C:\Users\GEORGE\.gradle\caches\transforms-1\files-1.1\play-services-tasks-16.0.1.aar\2750a0ed957d48eb02ad81f219745c9b\AndroidManifest.xml:5:5-44
MERGED from [com.google.firebase:firebase-measurement-connector:17.0.1] C:\Users\GEORGE\.gradle\caches\transforms-1\files-1.1\firebase-measurement-connector-17.0.1.aar\afe7ea2684d00037f91b41c1ca14a7ab\AndroidManifest.xml:20:5-44
MERGED from [com.google.firebase:firebase-measurement-connector:17.0.1] C:\Users\GEORGE\.gradle\caches\transforms-1\files-1.1\firebase-measurement-connector-17.0.1.aar\afe7ea2684d00037f91b41c1ca14a7ab\AndroidManifest.xml:20:5-44
MERGED from [com.google.android.gms:play-services-stats:16.0.1] C:\Users\GEORGE\.gradle\caches\transforms-1\files-1.1\play-services-stats-16.0.1.aar\fbd8e531580148a3fe2469a5b0652bfc\AndroidManifest.xml:5:5-44
MERGED from [com.google.android.gms:play-services-stats:16.0.1] C:\Users\GEORGE\.gradle\caches\transforms-1\files-1.1\play-services-stats-16.0.1.aar\fbd8e531580148a3fe2469a5b0652bfc\AndroidManifest.xml:5:5-44
MERGED from [com.google.android.gms:play-services-measurement-base:16.0.4] C:\Users\GEORGE\.gradle\caches\transforms-1\files-1.1\play-services-measurement-base-16.0.4.aar\fa6c7014fbe507e4f8b8b14db2fe1218\AndroidManifest.xml:5:5-44
MERGED from [com.google.android.gms:play-services-measurement-base:16.0.4] C:\Users\GEORGE\.gradle\caches\transforms-1\files-1.1\play-services-measurement-base-16.0.4.aar\fa6c7014fbe507e4f8b8b14db2fe1218\AndroidManifest.xml:5:5-44
MERGED from [com.google.android.gms:play-services-ads-identifier:16.0.0] C:\Users\GEORGE\.gradle\caches\transforms-1\files-1.1\play-services-ads-identifier-16.0.0.aar\8cc14f57b5c977a5913831ede29d3585\AndroidManifest.xml:20:5-44
MERGED from [com.google.android.gms:play-services-ads-identifier:16.0.0] C:\Users\GEORGE\.gradle\caches\transforms-1\files-1.1\play-services-ads-identifier-16.0.0.aar\8cc14f57b5c977a5913831ede29d3585\AndroidManifest.xml:20:5-44
MERGED from [com.google.android.gms:play-services-basement:16.1.0] C:\Users\GEORGE\.gradle\caches\transforms-1\files-1.1\play-services-basement-16.1.0.aar\a3b0d04da621286d97933358a6f2ca2d\AndroidManifest.xml:20:5-44
MERGED from [com.google.android.gms:play-services-basement:16.1.0] C:\Users\GEORGE\.gradle\caches\transforms-1\files-1.1\play-services-basement-16.1.0.aar\a3b0d04da621286d97933358a6f2ca2d\AndroidManifest.xml:20:5-44
MERGED from [com.android.support:support-v4:28.0.0] C:\Users\GEORGE\.gradle\caches\transforms-1\files-1.1\support-v4-28.0.0.aar\4ce7866fedad39ff6646fb01e9abcbfa\AndroidManifest.xml:20:5-44
MERGED from [com.android.support:support-v4:28.0.0] C:\Users\GEORGE\.gradle\caches\transforms-1\files-1.1\support-v4-28.0.0.aar\4ce7866fedad39ff6646fb01e9abcbfa\AndroidManifest.xml:20:5-44
MERGED from [com.android.support:gridlayout-v7:28.0.0] C:\Users\GEORGE\.gradle\caches\transforms-1\files-1.1\gridlayout-v7-28.0.0.aar\07a55267fcdb9ea6cfd396070b44db1e\AndroidManifest.xml:20:5-44
MERGED from [com.android.support:gridlayout-v7:28.0.0] C:\Users\GEORGE\.gradle\caches\transforms-1\files-1.1\gridlayout-v7-28.0.0.aar\07a55267fcdb9ea6cfd396070b44db1e\AndroidManifest.xml:20:5-44
MERGED from [com.android.support:cardview-v7:28.0.0] C:\Users\GEORGE\.gradle\caches\transforms-1\files-1.1\cardview-v7-28.0.0.aar\4c515aeb8a92b110e517d00f3f18c793\AndroidManifest.xml:20:5-44
MERGED from [com.android.support:cardview-v7:28.0.0] C:\Users\GEORGE\.gradle\caches\transforms-1\files-1.1\cardview-v7-28.0.0.aar\4c515aeb8a92b110e517d00f3f18c793\AndroidManifest.xml:20:5-44
MERGED from [com.android.support.constraint:constraint-layout:1.1.3] C:\Users\GEORGE\.gradle\caches\transforms-1\files-1.1\constraint-layout-1.1.3.aar\a2b54b7f1ba2d9289e6cddcfae68c601\AndroidManifest.xml:5:5-7:41
MERGED from [com.android.support.constraint:constraint-layout:1.1.3] C:\Users\GEORGE\.gradle\caches\transforms-1\files-1.1\constraint-layout-1.1.3.aar\a2b54b7f1ba2d9289e6cddcfae68c601\AndroidManifest.xml:5:5-7:41
MERGED from [com.ogaclejapan.smarttablayout:library:1.6.1] C:\Users\GEORGE\.gradle\caches\transforms-1\files-1.1\library-1.6.1.aar\d522a5b7cddcdad43d1d5ae8bb524607\AndroidManifest.xml:8:5-10:41
MERGED from [com.ogaclejapan.smarttablayout:library:1.6.1] C:\Users\GEORGE\.gradle\caches\transforms-1\files-1.1\library-1.6.1.aar\d522a5b7cddcdad43d1d5ae8bb524607\AndroidManifest.xml:8:5-10:41
MERGED from [com.ogaclejapan.smarttablayout:utils-v4:1.6.1] C:\Users\GEORGE\.gradle\caches\transforms-1\files-1.1\utils-v4-1.6.1.aar\646528312a18441b964ba883da79e1ef\AndroidManifest.xml:8:5-10:41
MERGED from [com.ogaclejapan.smarttablayout:utils-v4:1.6.1] C:\Users\GEORGE\.gradle\caches\transforms-1\files-1.1\utils-v4-1.6.1.aar\646528312a18441b964ba883da79e1ef\AndroidManifest.xml:8:5-10:41
MERGED from [com.android.support:support-fragment:28.0.0] C:\Users\GEORGE\.gradle\caches\transforms-1\files-1.1\support-fragment-28.0.0.aar\97f95aa96f629c267b07fddc92acda07\AndroidManifest.xml:20:5-44
MERGED from [com.android.support:support-fragment:28.0.0] C:\Users\GEORGE\.gradle\caches\transforms-1\files-1.1\support-fragment-28.0.0.aar\97f95aa96f629c267b07fddc92acda07\AndroidManifest.xml:20:5-44
MERGED from [com.android.support:animated-vector-drawable:28.0.0] C:\Users\GEORGE\.gradle\caches\transforms-1\files-1.1\animated-vector-drawable-28.0.0.aar\364afe0be79a10765a73e51cb03642ec\AndroidManifest.xml:20:5-44
MERGED from [com.android.support:animated-vector-drawable:28.0.0] C:\Users\GEORGE\.gradle\caches\transforms-1\files-1.1\animated-vector-drawable-28.0.0.aar\364afe0be79a10765a73e51cb03642ec\AndroidManifest.xml:20:5-44
MERGED from [com.android.support:recyclerview-v7:28.0.0] C:\Users\GEORGE\.gradle\caches\transforms-1\files-1.1\recyclerview-v7-28.0.0.aar\c3d8ea09ce9b77010679c2ec1f61002d\AndroidManifest.xml:20:5-44
MERGED from [com.android.support:recyclerview-v7:28.0.0] C:\Users\GEORGE\.gradle\caches\transforms-1\files-1.1\recyclerview-v7-28.0.0.aar\c3d8ea09ce9b77010679c2ec1f61002d\AndroidManifest.xml:20:5-44
MERGED from [com.android.support:support-core-ui:28.0.0] C:\Users\GEORGE\.gradle\caches\transforms-1\files-1.1\support-core-ui-28.0.0.aar\f02915eadde38bc13a230586f1ef6c1b\AndroidManifest.xml:20:5-44
MERGED from [com.android.support:support-core-ui:28.0.0] C:\Users\GEORGE\.gradle\caches\transforms-1\files-1.1\support-core-ui-28.0.0.aar\f02915eadde38bc13a230586f1ef6c1b\AndroidManifest.xml:20:5-44
MERGED from [com.android.support:support-core-utils:28.0.0] C:\Users\GEORGE\.gradle\caches\transforms-1\files-1.1\support-core-utils-28.0.0.aar\755ca243617e9870010dd1ce0bf888d2\AndroidManifest.xml:20:5-44
MERGED from [com.android.support:support-core-utils:28.0.0] C:\Users\GEORGE\.gradle\caches\transforms-1\files-1.1\support-core-utils-28.0.0.aar\755ca243617e9870010dd1ce0bf888d2\AndroidManifest.xml:20:5-44
MERGED from [com.android.support:support-vector-drawable:28.0.0] C:\Users\GEORGE\.gradle\caches\transforms-1\files-1.1\support-vector-drawable-28.0.0.aar\da824a9fb560ca00c46f1c5c8c8e2f7d\AndroidManifest.xml:20:5-44
MERGED from [com.android.support:support-vector-drawable:28.0.0] C:\Users\GEORGE\.gradle\caches\transforms-1\files-1.1\support-vector-drawable-28.0.0.aar\da824a9fb560ca00c46f1c5c8c8e2f7d\AndroidManifest.xml:20:5-44
MERGED from [com.android.support:support-media-compat:28.0.0] C:\Users\GEORGE\.gradle\caches\transforms-1\files-1.1\support-media-compat-28.0.0.aar\189df5758e41376c55b72636597c1a24\AndroidManifest.xml:20:5-44
MERGED from [com.android.support:support-media-compat:28.0.0] C:\Users\GEORGE\.gradle\caches\transforms-1\files-1.1\support-media-compat-28.0.0.aar\189df5758e41376c55b72636597c1a24\AndroidManifest.xml:20:5-44
MERGED from [com.android.support:transition:28.0.0] C:\Users\GEORGE\.gradle\caches\transforms-1\files-1.1\transition-28.0.0.aar\baa0f46639c7177f049776956fc89f0f\AndroidManifest.xml:20:5-44
MERGED from [com.android.support:transition:28.0.0] C:\Users\GEORGE\.gradle\caches\transforms-1\files-1.1\transition-28.0.0.aar\baa0f46639c7177f049776956fc89f0f\AndroidManifest.xml:20:5-44
MERGED from [com.android.support:loader:28.0.0] C:\Users\GEORGE\.gradle\caches\transforms-1\files-1.1\loader-28.0.0.aar\0f1886fbba3725df34b3b512a886a32b\AndroidManifest.xml:20:5-44
MERGED from [com.android.support:loader:28.0.0] C:\Users\GEORGE\.gradle\caches\transforms-1\files-1.1\loader-28.0.0.aar\0f1886fbba3725df34b3b512a886a32b\AndroidManifest.xml:20:5-44
MERGED from [com.android.support:viewpager:28.0.0] C:\Users\GEORGE\.gradle\caches\transforms-1\files-1.1\viewpager-28.0.0.aar\d87969e1d23c3ed25fc13dfe1f5c7185\AndroidManifest.xml:20:5-44
MERGED from [com.android.support:viewpager:28.0.0] C:\Users\GEORGE\.gradle\caches\transforms-1\files-1.1\viewpager-28.0.0.aar\d87969e1d23c3ed25fc13dfe1f5c7185\AndroidManifest.xml:20:5-44
MERGED from [com.android.support:coordinatorlayout:28.0.0] C:\Users\GEORGE\.gradle\caches\transforms-1\files-1.1\coordinatorlayout-28.0.0.aar\7794a38ac90720d1213e9d3ce02ff359\AndroidManifest.xml:20:5-44
MERGED from [com.android.support:coordinatorlayout:28.0.0] C:\Users\GEORGE\.gradle\caches\transforms-1\files-1.1\coordinatorlayout-28.0.0.aar\7794a38ac90720d1213e9d3ce02ff359\AndroidManifest.xml:20:5-44
MERGED from [com.android.support:drawerlayout:28.0.0] C:\Users\GEORGE\.gradle\caches\transforms-1\files-1.1\drawerlayout-28.0.0.aar\2db517b8ab46f583b7ab66a3c90aac49\AndroidManifest.xml:20:5-44
MERGED from [com.android.support:drawerlayout:28.0.0] C:\Users\GEORGE\.gradle\caches\transforms-1\files-1.1\drawerlayout-28.0.0.aar\2db517b8ab46f583b7ab66a3c90aac49\AndroidManifest.xml:20:5-44
MERGED from [com.android.support:slidingpanelayout:28.0.0] C:\Users\GEORGE\.gradle\caches\transforms-1\files-1.1\slidingpanelayout-28.0.0.aar\999598d1b7666e276d3288717bd68719\AndroidManifest.xml:20:5-44
MERGED from [com.android.support:slidingpanelayout:28.0.0] C:\Users\GEORGE\.gradle\caches\transforms-1\files-1.1\slidingpanelayout-28.0.0.aar\999598d1b7666e276d3288717bd68719\AndroidManifest.xml:20:5-44
MERGED from [com.android.support:customview:28.0.0] C:\Users\GEORGE\.gradle\caches\transforms-1\files-1.1\customview-28.0.0.aar\77886d95a951841975e38b23519cf7d4\AndroidManifest.xml:20:5-44
MERGED from [com.android.support:customview:28.0.0] C:\Users\GEORGE\.gradle\caches\transforms-1\files-1.1\customview-28.0.0.aar\77886d95a951841975e38b23519cf7d4\AndroidManifest.xml:20:5-44
MERGED from [com.android.support:swiperefreshlayout:28.0.0] C:\Users\GEORGE\.gradle\caches\transforms-1\files-1.1\swiperefreshlayout-28.0.0.aar\244cb5590ea54e48b004f00110882a8b\AndroidManifest.xml:20:5-44
MERGED from [com.android.support:swiperefreshlayout:28.0.0] C:\Users\GEORGE\.gradle\caches\transforms-1\files-1.1\swiperefreshlayout-28.0.0.aar\244cb5590ea54e48b004f00110882a8b\AndroidManifest.xml:20:5-44
MERGED from [com.android.support:asynclayoutinflater:28.0.0] C:\Users\GEORGE\.gradle\caches\transforms-1\files-1.1\asynclayoutinflater-28.0.0.aar\debbc1b615a0d03de8fba596a8dfa4ed\AndroidManifest.xml:20:5-44
MERGED from [com.android.support:asynclayoutinflater:28.0.0] C:\Users\GEORGE\.gradle\caches\transforms-1\files-1.1\asynclayoutinflater-28.0.0.aar\debbc1b615a0d03de8fba596a8dfa4ed\AndroidManifest.xml:20:5-44
MERGED from [com.android.support:support-compat:28.0.0] C:\Users\GEORGE\.gradle\caches\transforms-1\files-1.1\support-compat-28.0.0.aar\7104eb5e2e186082aecb5125d5077a5d\AndroidManifest.xml:20:5-44
MERGED from [com.android.support:support-compat:28.0.0] C:\Users\GEORGE\.gradle\caches\transforms-1\files-1.1\support-compat-28.0.0.aar\7104eb5e2e186082aecb5125d5077a5d\AndroidManifest.xml:20:5-44
MERGED from [android.arch.lifecycle:runtime:1.1.1] C:\Users\GEORGE\.gradle\caches\transforms-1\files-1.1\runtime-1.1.1.aar\aabde205df8ba7038e00f342a285b9dd\AndroidManifest.xml:20:5-44
MERGED from [android.arch.lifecycle:runtime:1.1.1] C:\Users\GEORGE\.gradle\caches\transforms-1\files-1.1\runtime-1.1.1.aar\aabde205df8ba7038e00f342a285b9dd\AndroidManifest.xml:20:5-44
MERGED from [com.android.support:versionedparcelable:28.0.0] C:\Users\GEORGE\.gradle\caches\transforms-1\files-1.1\versionedparcelable-28.0.0.aar\781aa78fe9800cf7fa617babf0a4ec98\AndroidManifest.xml:20:5-44
MERGED from [com.android.support:versionedparcelable:28.0.0] C:\Users\GEORGE\.gradle\caches\transforms-1\files-1.1\versionedparcelable-28.0.0.aar\781aa78fe9800cf7fa617babf0a4ec98\AndroidManifest.xml:20:5-44
MERGED from [com.android.support:cursoradapter:28.0.0] C:\Users\GEORGE\.gradle\caches\transforms-1\files-1.1\cursoradapter-28.0.0.aar\5b1ec88df8d8381df38e25e66c4e1ed7\AndroidManifest.xml:20:5-44
MERGED from [com.android.support:cursoradapter:28.0.0] C:\Users\GEORGE\.gradle\caches\transforms-1\files-1.1\cursoradapter-28.0.0.aar\5b1ec88df8d8381df38e25e66c4e1ed7\AndroidManifest.xml:20:5-44
MERGED from [com.android.support:documentfile:28.0.0] C:\Users\GEORGE\.gradle\caches\transforms-1\files-1.1\documentfile-28.0.0.aar\fa9fab433115237651620e97d3b037a3\AndroidManifest.xml:20:5-44
MERGED from [com.android.support:documentfile:28.0.0] C:\Users\GEORGE\.gradle\caches\transforms-1\files-1.1\documentfile-28.0.0.aar\fa9fab433115237651620e97d3b037a3\AndroidManifest.xml:20:5-44
MERGED from [com.android.support:localbroadcastmanager:28.0.0] C:\Users\GEORGE\.gradle\caches\transforms-1\files-1.1\localbroadcastmanager-28.0.0.aar\4860fbff1a24d6d620482e997cf3becc\AndroidManifest.xml:20:5-44
MERGED from [com.android.support:localbroadcastmanager:28.0.0] C:\Users\GEORGE\.gradle\caches\transforms-1\files-1.1\localbroadcastmanager-28.0.0.aar\4860fbff1a24d6d620482e997cf3becc\AndroidManifest.xml:20:5-44
MERGED from [com.android.support:print:28.0.0] C:\Users\GEORGE\.gradle\caches\transforms-1\files-1.1\print-28.0.0.aar\a38c790c2e5f2074481b7091b28d8c84\AndroidManifest.xml:20:5-44
MERGED from [com.android.support:print:28.0.0] C:\Users\GEORGE\.gradle\caches\transforms-1\files-1.1\print-28.0.0.aar\a38c790c2e5f2074481b7091b28d8c84\AndroidManifest.xml:20:5-44
MERGED from [android.arch.lifecycle:viewmodel:1.1.1] C:\Users\GEORGE\.gradle\caches\transforms-1\files-1.1\viewmodel-1.1.1.aar\42f4309fb95918e1e4033efc9d0dd824\AndroidManifest.xml:20:5-44
MERGED from [android.arch.lifecycle:viewmodel:1.1.1] C:\Users\GEORGE\.gradle\caches\transforms-1\files-1.1\viewmodel-1.1.1.aar\42f4309fb95918e1e4033efc9d0dd824\AndroidManifest.xml:20:5-44
MERGED from [com.android.support:interpolator:28.0.0] C:\Users\GEORGE\.gradle\caches\transforms-1\files-1.1\interpolator-28.0.0.aar\1a966a42367641c9ab1117861f68fe07\AndroidManifest.xml:20:5-44
MERGED from [com.android.support:interpolator:28.0.0] C:\Users\GEORGE\.gradle\caches\transforms-1\files-1.1\interpolator-28.0.0.aar\1a966a42367641c9ab1117861f68fe07\AndroidManifest.xml:20:5-44
MERGED from [android.arch.lifecycle:livedata:1.1.1] C:\Users\GEORGE\.gradle\caches\transforms-1\files-1.1\livedata-1.1.1.aar\f8f220ce8ae452a120e58237d4c9fe7a\AndroidManifest.xml:20:5-44
MERGED from [android.arch.lifecycle:livedata:1.1.1] C:\Users\GEORGE\.gradle\caches\transforms-1\files-1.1\livedata-1.1.1.aar\f8f220ce8ae452a120e58237d4c9fe7a\AndroidManifest.xml:20:5-44
MERGED from [android.arch.lifecycle:livedata-core:1.1.1] C:\Users\GEORGE\.gradle\caches\transforms-1\files-1.1\livedata-core-1.1.1.aar\41e98e7aabbb4d0471368cd53664c17c\AndroidManifest.xml:20:5-44
MERGED from [android.arch.lifecycle:livedata-core:1.1.1] C:\Users\GEORGE\.gradle\caches\transforms-1\files-1.1\livedata-core-1.1.1.aar\41e98e7aabbb4d0471368cd53664c17c\AndroidManifest.xml:20:5-44
MERGED from [android.arch.core:runtime:1.1.1] C:\Users\GEORGE\.gradle\caches\transforms-1\files-1.1\runtime-1.1.1.aar\80e7a41fa5ecf05b349270f5be193fdf\AndroidManifest.xml:20:5-44
MERGED from [android.arch.core:runtime:1.1.1] C:\Users\GEORGE\.gradle\caches\transforms-1\files-1.1\runtime-1.1.1.aar\80e7a41fa5ecf05b349270f5be193fdf\AndroidManifest.xml:20:5-44
MERGED from [com.google.firebase:firebase-database-collection:16.0.1] C:\Users\GEORGE\.gradle\caches\transforms-1\files-1.1\firebase-database-collection-16.0.1.aar\ff72fcacc380cd6cc742fae28886638d\AndroidManifest.xml:5:5-44
MERGED from [com.google.firebase:firebase-database-collection:16.0.1] C:\Users\GEORGE\.gradle\caches\transforms-1\files-1.1\firebase-database-collection-16.0.1.aar\ff72fcacc380cd6cc742fae28886638d\AndroidManifest.xml:5:5-44
INJECTED from C:\Users\GEORGE\Documents\REPOSITORIO\varios\Source code\app\src\main\AndroidManifest.xml
INJECTED from C:\Users\GEORGE\Documents\REPOSITORIO\varios\Source code\app\src\main\AndroidManifest.xml
	android:targetSdkVersion
		INJECTED from C:\Users\GEORGE\Documents\REPOSITORIO\varios\Source code\app\src\main\AndroidManifest.xml
		ADDED from C:\Users\GEORGE\Documents\REPOSITORIO\varios\Source code\app\src\main\AndroidManifest.xml
		INJECTED from C:\Users\GEORGE\Documents\REPOSITORIO\varios\Source code\app\src\main\AndroidManifest.xml
	android:minSdkVersion
		INJECTED from C:\Users\GEORGE\Documents\REPOSITORIO\varios\Source code\app\src\main\AndroidManifest.xml
		ADDED from C:\Users\GEORGE\Documents\REPOSITORIO\varios\Source code\app\src\main\AndroidManifest.xml
		INJECTED from C:\Users\GEORGE\Documents\REPOSITORIO\varios\Source code\app\src\main\AndroidManifest.xml
service#com.google.firebase.messaging.FirebaseMessagingService
ADDED from [com.google.firebase:firebase-messaging:17.3.4] C:\Users\GEORGE\.gradle\caches\transforms-1\files-1.1\firebase-messaging-17.3.4.aar\14247e62492c7f7bae8b8826768b9aaa\AndroidManifest.xml:28:9-34:19
	android:exported
		ADDED from [com.google.firebase:firebase-messaging:17.3.4] C:\Users\GEORGE\.gradle\caches\transforms-1\files-1.1\firebase-messaging-17.3.4.aar\14247e62492c7f7bae8b8826768b9aaa\AndroidManifest.xml:30:13-36
	android:name
		ADDED from [com.google.firebase:firebase-messaging:17.3.4] C:\Users\GEORGE\.gradle\caches\transforms-1\files-1.1\firebase-messaging-17.3.4.aar\14247e62492c7f7bae8b8826768b9aaa\AndroidManifest.xml:29:13-82
uses-permission#android.permission.ACCESS_NETWORK_STATE
ADDED from [com.google.firebase:firebase-database:16.0.5] C:\Users\GEORGE\.gradle\caches\transforms-1\files-1.1\firebase-database-16.0.5.aar\afbae510805609010551428e4623b014\AndroidManifest.xml:22:5-79
MERGED from [com.google.firebase:firebase-storage:16.0.5] C:\Users\GEORGE\.gradle\caches\transforms-1\files-1.1\firebase-storage-16.0.5.aar\b6eec2d5dc5d9deb1ed2b67d3152c58b\AndroidManifest.xml:23:5-79
MERGED from [com.google.firebase:firebase-storage:16.0.5] C:\Users\GEORGE\.gradle\caches\transforms-1\files-1.1\firebase-storage-16.0.5.aar\b6eec2d5dc5d9deb1ed2b67d3152c58b\AndroidManifest.xml:23:5-79
MERGED from [com.google.firebase:firebase-measurement-connector-impl:17.0.3] C:\Users\GEORGE\.gradle\caches\transforms-1\files-1.1\firebase-measurement-connector-impl-17.0.3.aar\6904fb48ad62615d50ad3c60671389ae\AndroidManifest.xml:23:5-79
MERGED from [com.google.firebase:firebase-measurement-connector-impl:17.0.3] C:\Users\GEORGE\.gradle\caches\transforms-1\files-1.1\firebase-measurement-connector-impl-17.0.3.aar\6904fb48ad62615d50ad3c60671389ae\AndroidManifest.xml:23:5-79
MERGED from [com.google.firebase:firebase-analytics:16.0.5] C:\Users\GEORGE\.gradle\caches\transforms-1\files-1.1\firebase-analytics-16.0.5.aar\d54f59545f49ba231c84f68dd235645b\AndroidManifest.xml:24:5-79
MERGED from [com.google.firebase:firebase-analytics:16.0.5] C:\Users\GEORGE\.gradle\caches\transforms-1\files-1.1\firebase-analytics-16.0.5.aar\d54f59545f49ba231c84f68dd235645b\AndroidManifest.xml:24:5-79
MERGED from [com.google.firebase:firebase-analytics-impl:16.2.3] C:\Users\GEORGE\.gradle\caches\transforms-1\files-1.1\firebase-analytics-impl-16.2.3.aar\f1f286316ab2c198306bf644d03e684c\AndroidManifest.xml:24:5-79
MERGED from [com.google.firebase:firebase-analytics-impl:16.2.3] C:\Users\GEORGE\.gradle\caches\transforms-1\files-1.1\firebase-analytics-impl-16.2.3.aar\f1f286316ab2c198306bf644d03e684c\AndroidManifest.xml:24:5-79
MERGED from [com.google.firebase:firebase-iid:17.0.4] C:\Users\GEORGE\.gradle\caches\transforms-1\files-1.1\firebase-iid-17.0.4.aar\321bfaab2dffd1a4cdf7e5e86a9e192b\AndroidManifest.xml:22:5-79
MERGED from [com.google.firebase:firebase-iid:17.0.4] C:\Users\GEORGE\.gradle\caches\transforms-1\files-1.1\firebase-iid-17.0.4.aar\321bfaab2dffd1a4cdf7e5e86a9e192b\AndroidManifest.xml:22:5-79
	android:name
		ADDED from [com.google.firebase:firebase-database:16.0.5] C:\Users\GEORGE\.gradle\caches\transforms-1\files-1.1\firebase-database-16.0.5.aar\afbae510805609010551428e4623b014\AndroidManifest.xml:22:22-76
activity#com.google.firebase.auth.internal.FederatedSignInActivity
ADDED from [com.google.firebase:firebase-auth:16.0.5] C:\Users\GEORGE\.gradle\caches\transforms-1\files-1.1\firebase-auth-16.0.5.aar\f55c734f08078d280507d0200513ad44\AndroidManifest.xml:24:9-31:50
	android:excludeFromRecents
		ADDED from [com.google.firebase:firebase-auth:16.0.5] C:\Users\GEORGE\.gradle\caches\transforms-1\files-1.1\firebase-auth-16.0.5.aar\f55c734f08078d280507d0200513ad44\AndroidManifest.xml:26:13-46
	android:launchMode
		ADDED from [com.google.firebase:firebase-auth:16.0.5] C:\Users\GEORGE\.gradle\caches\transforms-1\files-1.1\firebase-auth-16.0.5.aar\f55c734f08078d280507d0200513ad44\AndroidManifest.xml:28:13-44
	android:exported
		ADDED from [com.google.firebase:firebase-auth:16.0.5] C:\Users\GEORGE\.gradle\caches\transforms-1\files-1.1\firebase-auth-16.0.5.aar\f55c734f08078d280507d0200513ad44\AndroidManifest.xml:27:13-36
	android:permission
		ADDED from [com.google.firebase:firebase-auth:16.0.5] C:\Users\GEORGE\.gradle\caches\transforms-1\files-1.1\firebase-auth-16.0.5.aar\f55c734f08078d280507d0200513ad44\AndroidManifest.xml:29:13-102
	android:theme
		ADDED from [com.google.firebase:firebase-auth:16.0.5] C:\Users\GEORGE\.gradle\caches\transforms-1\files-1.1\firebase-auth-16.0.5.aar\f55c734f08078d280507d0200513ad44\AndroidManifest.xml:30:13-72
	tools:replace
		ADDED from [com.google.firebase:firebase-auth:16.0.5] C:\Users\GEORGE\.gradle\caches\transforms-1\files-1.1\firebase-auth-16.0.5.aar\f55c734f08078d280507d0200513ad44\AndroidManifest.xml:31:13-47
	android:name
		ADDED from [com.google.firebase:firebase-auth:16.0.5] C:\Users\GEORGE\.gradle\caches\transforms-1\files-1.1\firebase-auth-16.0.5.aar\f55c734f08078d280507d0200513ad44\AndroidManifest.xml:25:13-85
service#com.google.firebase.components.ComponentDiscoveryService
ADDED from [com.google.firebase:firebase-auth:16.0.5] C:\Users\GEORGE\.gradle\caches\transforms-1\files-1.1\firebase-auth-16.0.5.aar\f55c734f08078d280507d0200513ad44\AndroidManifest.xml:33:9-39:19
MERGED from [com.google.firebase:firebase-measurement-connector-impl:17.0.3] C:\Users\GEORGE\.gradle\caches\transforms-1\files-1.1\firebase-measurement-connector-impl-17.0.3.aar\6904fb48ad62615d50ad3c60671389ae\AndroidManifest.xml:27:9-31:19
MERGED from [com.google.firebase:firebase-measurement-connector-impl:17.0.3] C:\Users\GEORGE\.gradle\caches\transforms-1\files-1.1\firebase-measurement-connector-impl-17.0.3.aar\6904fb48ad62615d50ad3c60671389ae\AndroidManifest.xml:27:9-31:19
MERGED from [com.google.firebase:firebase-iid:17.0.4] C:\Users\GEORGE\.gradle\caches\transforms-1\files-1.1\firebase-iid-17.0.4.aar\321bfaab2dffd1a4cdf7e5e86a9e192b\AndroidManifest.xml:29:9-35:19
MERGED from [com.google.firebase:firebase-iid:17.0.4] C:\Users\GEORGE\.gradle\caches\transforms-1\files-1.1\firebase-iid-17.0.4.aar\321bfaab2dffd1a4cdf7e5e86a9e192b\AndroidManifest.xml:29:9-35:19
	android:exported
		ADDED from [com.google.firebase:firebase-auth:16.0.5] C:\Users\GEORGE\.gradle\caches\transforms-1\files-1.1\firebase-auth-16.0.5.aar\f55c734f08078d280507d0200513ad44\AndroidManifest.xml:35:13-37
	android:name
		ADDED from [com.google.firebase:firebase-auth:16.0.5] C:\Users\GEORGE\.gradle\caches\transforms-1\files-1.1\firebase-auth-16.0.5.aar\f55c734f08078d280507d0200513ad44\AndroidManifest.xml:34:13-84
meta-data#com.google.firebase.components:com.google.firebase.auth.FirebaseAuthRegistrar
ADDED from [com.google.firebase:firebase-auth:16.0.5] C:\Users\GEORGE\.gradle\caches\transforms-1\files-1.1\firebase-auth-16.0.5.aar\f55c734f08078d280507d0200513ad44\AndroidManifest.xml:36:13-38:85
	android:value
		ADDED from [com.google.firebase:firebase-auth:16.0.5] C:\Users\GEORGE\.gradle\caches\transforms-1\files-1.1\firebase-auth-16.0.5.aar\f55c734f08078d280507d0200513ad44\AndroidManifest.xml:38:17-82
	android:name
		ADDED from [com.google.firebase:firebase-auth:16.0.5] C:\Users\GEORGE\.gradle\caches\transforms-1\files-1.1\firebase-auth-16.0.5.aar\f55c734f08078d280507d0200513ad44\AndroidManifest.xml:37:17-109
uses-permission#android.permission.WAKE_LOCK
ADDED from [com.google.firebase:firebase-measurement-connector-impl:17.0.3] C:\Users\GEORGE\.gradle\caches\transforms-1\files-1.1\firebase-measurement-connector-impl-17.0.3.aar\6904fb48ad62615d50ad3c60671389ae\AndroidManifest.xml:24:5-68
MERGED from [com.google.firebase:firebase-analytics:16.0.5] C:\Users\GEORGE\.gradle\caches\transforms-1\files-1.1\firebase-analytics-16.0.5.aar\d54f59545f49ba231c84f68dd235645b\AndroidManifest.xml:25:5-68
MERGED from [com.google.firebase:firebase-analytics:16.0.5] C:\Users\GEORGE\.gradle\caches\transforms-1\files-1.1\firebase-analytics-16.0.5.aar\d54f59545f49ba231c84f68dd235645b\AndroidManifest.xml:25:5-68
MERGED from [com.google.firebase:firebase-analytics-impl:16.2.3] C:\Users\GEORGE\.gradle\caches\transforms-1\files-1.1\firebase-analytics-impl-16.2.3.aar\f1f286316ab2c198306bf644d03e684c\AndroidManifest.xml:25:5-68
MERGED from [com.google.firebase:firebase-analytics-impl:16.2.3] C:\Users\GEORGE\.gradle\caches\transforms-1\files-1.1\firebase-analytics-impl-16.2.3.aar\f1f286316ab2c198306bf644d03e684c\AndroidManifest.xml:25:5-68
MERGED from [com.google.firebase:firebase-iid:17.0.4] C:\Users\GEORGE\.gradle\caches\transforms-1\files-1.1\firebase-iid-17.0.4.aar\321bfaab2dffd1a4cdf7e5e86a9e192b\AndroidManifest.xml:24:5-68
MERGED from [com.google.firebase:firebase-iid:17.0.4] C:\Users\GEORGE\.gradle\caches\transforms-1\files-1.1\firebase-iid-17.0.4.aar\321bfaab2dffd1a4cdf7e5e86a9e192b\AndroidManifest.xml:24:5-68
	android:name
		ADDED from [com.google.firebase:firebase-measurement-connector-impl:17.0.3] C:\Users\GEORGE\.gradle\caches\transforms-1\files-1.1\firebase-measurement-connector-impl-17.0.3.aar\6904fb48ad62615d50ad3c60671389ae\AndroidManifest.xml:24:22-65
meta-data#com.google.firebase.components:com.google.firebase.analytics.connector.internal.AnalyticsConnectorRegistrar
ADDED from [com.google.firebase:firebase-measurement-connector-impl:17.0.3] C:\Users\GEORGE\.gradle\caches\transforms-1\files-1.1\firebase-measurement-connector-impl-17.0.3.aar\6904fb48ad62615d50ad3c60671389ae\AndroidManifest.xml:28:13-30:85
	android:value
		ADDED from [com.google.firebase:firebase-measurement-connector-impl:17.0.3] C:\Users\GEORGE\.gradle\caches\transforms-1\files-1.1\firebase-measurement-connector-impl-17.0.3.aar\6904fb48ad62615d50ad3c60671389ae\AndroidManifest.xml:30:17-82
	android:name
		ADDED from [com.google.firebase:firebase-measurement-connector-impl:17.0.3] C:\Users\GEORGE\.gradle\caches\transforms-1\files-1.1\firebase-measurement-connector-impl-17.0.3.aar\6904fb48ad62615d50ad3c60671389ae\AndroidManifest.xml:29:17-139
uses-permission#com.google.android.finsky.permission.BIND_GET_INSTALL_REFERRER_SERVICE
ADDED from [com.google.firebase:firebase-analytics:16.0.5] C:\Users\GEORGE\.gradle\caches\transforms-1\files-1.1\firebase-analytics-16.0.5.aar\d54f59545f49ba231c84f68dd235645b\AndroidManifest.xml:26:5-110
MERGED from [com.google.firebase:firebase-analytics-impl:16.2.3] C:\Users\GEORGE\.gradle\caches\transforms-1\files-1.1\firebase-analytics-impl-16.2.3.aar\f1f286316ab2c198306bf644d03e684c\AndroidManifest.xml:26:5-110
MERGED from [com.google.firebase:firebase-analytics-impl:16.2.3] C:\Users\GEORGE\.gradle\caches\transforms-1\files-1.1\firebase-analytics-impl-16.2.3.aar\f1f286316ab2c198306bf644d03e684c\AndroidManifest.xml:26:5-110
	android:name
		ADDED from [com.google.firebase:firebase-analytics:16.0.5] C:\Users\GEORGE\.gradle\caches\transforms-1\files-1.1\firebase-analytics-16.0.5.aar\d54f59545f49ba231c84f68dd235645b\AndroidManifest.xml:26:22-107
receiver#com.google.android.gms.measurement.AppMeasurementReceiver
ADDED from [com.google.firebase:firebase-analytics:16.0.5] C:\Users\GEORGE\.gradle\caches\transforms-1\files-1.1\firebase-analytics-16.0.5.aar\d54f59545f49ba231c84f68dd235645b\AndroidManifest.xml:29:9-33:20
	android:enabled
		ADDED from [com.google.firebase:firebase-analytics:16.0.5] C:\Users\GEORGE\.gradle\caches\transforms-1\files-1.1\firebase-analytics-16.0.5.aar\d54f59545f49ba231c84f68dd235645b\AndroidManifest.xml:31:13-35
	android:exported
		ADDED from [com.google.firebase:firebase-analytics:16.0.5] C:\Users\GEORGE\.gradle\caches\transforms-1\files-1.1\firebase-analytics-16.0.5.aar\d54f59545f49ba231c84f68dd235645b\AndroidManifest.xml:32:13-37
	android:name
		ADDED from [com.google.firebase:firebase-analytics:16.0.5] C:\Users\GEORGE\.gradle\caches\transforms-1\files-1.1\firebase-analytics-16.0.5.aar\d54f59545f49ba231c84f68dd235645b\AndroidManifest.xml:30:13-85
receiver#com.google.android.gms.measurement.AppMeasurementInstallReferrerReceiver
ADDED from [com.google.firebase:firebase-analytics:16.0.5] C:\Users\GEORGE\.gradle\caches\transforms-1\files-1.1\firebase-analytics-16.0.5.aar\d54f59545f49ba231c84f68dd235645b\AndroidManifest.xml:34:9-42:20
MERGED from [com.google.firebase:firebase-analytics-impl:16.2.3] C:\Users\GEORGE\.gradle\caches\transforms-1\files-1.1\firebase-analytics-impl-16.2.3.aar\f1f286316ab2c198306bf644d03e684c\AndroidManifest.xml:29:9-37:20
MERGED from [com.google.firebase:firebase-analytics-impl:16.2.3] C:\Users\GEORGE\.gradle\caches\transforms-1\files-1.1\firebase-analytics-impl-16.2.3.aar\f1f286316ab2c198306bf644d03e684c\AndroidManifest.xml:29:9-37:20
	android:enabled
		ADDED from [com.google.firebase:firebase-analytics:16.0.5] C:\Users\GEORGE\.gradle\caches\transforms-1\files-1.1\firebase-analytics-16.0.5.aar\d54f59545f49ba231c84f68dd235645b\AndroidManifest.xml:36:13-35
	android:exported
		ADDED from [com.google.firebase:firebase-analytics:16.0.5] C:\Users\GEORGE\.gradle\caches\transforms-1\files-1.1\firebase-analytics-16.0.5.aar\d54f59545f49ba231c84f68dd235645b\AndroidManifest.xml:37:13-36
	android:permission
		ADDED from [com.google.firebase:firebase-analytics:16.0.5] C:\Users\GEORGE\.gradle\caches\transforms-1\files-1.1\firebase-analytics-16.0.5.aar\d54f59545f49ba231c84f68dd235645b\AndroidManifest.xml:38:13-69
	android:name
		ADDED from [com.google.firebase:firebase-analytics:16.0.5] C:\Users\GEORGE\.gradle\caches\transforms-1\files-1.1\firebase-analytics-16.0.5.aar\d54f59545f49ba231c84f68dd235645b\AndroidManifest.xml:35:13-100
intent-filter#action:name:com.android.vending.INSTALL_REFERRER
ADDED from [com.google.firebase:firebase-analytics:16.0.5] C:\Users\GEORGE\.gradle\caches\transforms-1\files-1.1\firebase-analytics-16.0.5.aar\d54f59545f49ba231c84f68dd235645b\AndroidManifest.xml:39:13-41:29
action#com.android.vending.INSTALL_REFERRER
ADDED from [com.google.firebase:firebase-analytics:16.0.5] C:\Users\GEORGE\.gradle\caches\transforms-1\files-1.1\firebase-analytics-16.0.5.aar\d54f59545f49ba231c84f68dd235645b\AndroidManifest.xml:40:17-79
	android:name
		ADDED from [com.google.firebase:firebase-analytics:16.0.5] C:\Users\GEORGE\.gradle\caches\transforms-1\files-1.1\firebase-analytics-16.0.5.aar\d54f59545f49ba231c84f68dd235645b\AndroidManifest.xml:40:25-76
service#com.google.android.gms.measurement.AppMeasurementService
ADDED from [com.google.firebase:firebase-analytics:16.0.5] C:\Users\GEORGE\.gradle\caches\transforms-1\files-1.1\firebase-analytics-16.0.5.aar\d54f59545f49ba231c84f68dd235645b\AndroidManifest.xml:44:9-47:40
	android:enabled
		ADDED from [com.google.firebase:firebase-analytics:16.0.5] C:\Users\GEORGE\.gradle\caches\transforms-1\files-1.1\firebase-analytics-16.0.5.aar\d54f59545f49ba231c84f68dd235645b\AndroidManifest.xml:46:13-35
	android:exported
		ADDED from [com.google.firebase:firebase-analytics:16.0.5] C:\Users\GEORGE\.gradle\caches\transforms-1\files-1.1\firebase-analytics-16.0.5.aar\d54f59545f49ba231c84f68dd235645b\AndroidManifest.xml:47:13-37
	android:name
		ADDED from [com.google.firebase:firebase-analytics:16.0.5] C:\Users\GEORGE\.gradle\caches\transforms-1\files-1.1\firebase-analytics-16.0.5.aar\d54f59545f49ba231c84f68dd235645b\AndroidManifest.xml:45:13-84
service#com.google.android.gms.measurement.AppMeasurementJobService
ADDED from [com.google.firebase:firebase-analytics:16.0.5] C:\Users\GEORGE\.gradle\caches\transforms-1\files-1.1\firebase-analytics-16.0.5.aar\d54f59545f49ba231c84f68dd235645b\AndroidManifest.xml:48:9-52:72
	android:enabled
		ADDED from [com.google.firebase:firebase-analytics:16.0.5] C:\Users\GEORGE\.gradle\caches\transforms-1\files-1.1\firebase-analytics-16.0.5.aar\d54f59545f49ba231c84f68dd235645b\AndroidManifest.xml:50:13-35
	android:exported
		ADDED from [com.google.firebase:firebase-analytics:16.0.5] C:\Users\GEORGE\.gradle\caches\transforms-1\files-1.1\firebase-analytics-16.0.5.aar\d54f59545f49ba231c84f68dd235645b\AndroidManifest.xml:51:13-37
	android:permission
		ADDED from [com.google.firebase:firebase-analytics:16.0.5] C:\Users\GEORGE\.gradle\caches\transforms-1\files-1.1\firebase-analytics-16.0.5.aar\d54f59545f49ba231c84f68dd235645b\AndroidManifest.xml:52:13-69
	android:name
		ADDED from [com.google.firebase:firebase-analytics:16.0.5] C:\Users\GEORGE\.gradle\caches\transforms-1\files-1.1\firebase-analytics-16.0.5.aar\d54f59545f49ba231c84f68dd235645b\AndroidManifest.xml:49:13-87
uses-permission#com.google.android.c2dm.permission.RECEIVE
ADDED from [com.google.firebase:firebase-iid:17.0.4] C:\Users\GEORGE\.gradle\caches\transforms-1\files-1.1\firebase-iid-17.0.4.aar\321bfaab2dffd1a4cdf7e5e86a9e192b\AndroidManifest.xml:26:5-82
	android:name
		ADDED from [com.google.firebase:firebase-iid:17.0.4] C:\Users\GEORGE\.gradle\caches\transforms-1\files-1.1\firebase-iid-17.0.4.aar\321bfaab2dffd1a4cdf7e5e86a9e192b\AndroidManifest.xml:26:22-79
meta-data#com.google.firebase.components:com.google.firebase.iid.Registrar
ADDED from [com.google.firebase:firebase-iid:17.0.4] C:\Users\GEORGE\.gradle\caches\transforms-1\files-1.1\firebase-iid-17.0.4.aar\321bfaab2dffd1a4cdf7e5e86a9e192b\AndroidManifest.xml:32:13-34:85
	android:value
		ADDED from [com.google.firebase:firebase-iid:17.0.4] C:\Users\GEORGE\.gradle\caches\transforms-1\files-1.1\firebase-iid-17.0.4.aar\321bfaab2dffd1a4cdf7e5e86a9e192b\AndroidManifest.xml:34:17-82
	android:name
		ADDED from [com.google.firebase:firebase-iid:17.0.4] C:\Users\GEORGE\.gradle\caches\transforms-1\files-1.1\firebase-iid-17.0.4.aar\321bfaab2dffd1a4cdf7e5e86a9e192b\AndroidManifest.xml:33:17-96
receiver#com.google.firebase.iid.FirebaseInstanceIdReceiver
ADDED from [com.google.firebase:firebase-iid:17.0.4] C:\Users\GEORGE\.gradle\caches\transforms-1\files-1.1\firebase-iid-17.0.4.aar\321bfaab2dffd1a4cdf7e5e86a9e192b\AndroidManifest.xml:37:9-44:20
	android:exported
		ADDED from [com.google.firebase:firebase-iid:17.0.4] C:\Users\GEORGE\.gradle\caches\transforms-1\files-1.1\firebase-iid-17.0.4.aar\321bfaab2dffd1a4cdf7e5e86a9e192b\AndroidManifest.xml:39:13-36
	android:permission
		ADDED from [com.google.firebase:firebase-iid:17.0.4] C:\Users\GEORGE\.gradle\caches\transforms-1\files-1.1\firebase-iid-17.0.4.aar\321bfaab2dffd1a4cdf7e5e86a9e192b\AndroidManifest.xml:40:13-73
	android:name
		ADDED from [com.google.firebase:firebase-iid:17.0.4] C:\Users\GEORGE\.gradle\caches\transforms-1\files-1.1\firebase-iid-17.0.4.aar\321bfaab2dffd1a4cdf7e5e86a9e192b\AndroidManifest.xml:38:13-78
intent-filter#action:name:com.google.android.c2dm.intent.RECEIVE
ADDED from [com.google.firebase:firebase-iid:17.0.4] C:\Users\GEORGE\.gradle\caches\transforms-1\files-1.1\firebase-iid-17.0.4.aar\321bfaab2dffd1a4cdf7e5e86a9e192b\AndroidManifest.xml:41:13-43:29
action#com.google.android.c2dm.intent.RECEIVE
ADDED from [com.google.firebase:firebase-iid:17.0.4] C:\Users\GEORGE\.gradle\caches\transforms-1\files-1.1\firebase-iid-17.0.4.aar\321bfaab2dffd1a4cdf7e5e86a9e192b\AndroidManifest.xml:42:17-81
	android:name
		ADDED from [com.google.firebase:firebase-iid:17.0.4] C:\Users\GEORGE\.gradle\caches\transforms-1\files-1.1\firebase-iid-17.0.4.aar\321bfaab2dffd1a4cdf7e5e86a9e192b\AndroidManifest.xml:42:25-78
service#com.google.firebase.iid.FirebaseInstanceIdService
ADDED from [com.google.firebase:firebase-iid:17.0.4] C:\Users\GEORGE\.gradle\caches\transforms-1\files-1.1\firebase-iid-17.0.4.aar\321bfaab2dffd1a4cdf7e5e86a9e192b\AndroidManifest.xml:50:9-56:19
	android:exported
		ADDED from [com.google.firebase:firebase-iid:17.0.4] C:\Users\GEORGE\.gradle\caches\transforms-1\files-1.1\firebase-iid-17.0.4.aar\321bfaab2dffd1a4cdf7e5e86a9e192b\AndroidManifest.xml:52:13-36
	android:name
		ADDED from [com.google.firebase:firebase-iid:17.0.4] C:\Users\GEORGE\.gradle\caches\transforms-1\files-1.1\firebase-iid-17.0.4.aar\321bfaab2dffd1a4cdf7e5e86a9e192b\AndroidManifest.xml:51:13-77
intent-filter#action:name:com.google.firebase.INSTANCE_ID_EVENT
ADDED from [com.google.firebase:firebase-iid:17.0.4] C:\Users\GEORGE\.gradle\caches\transforms-1\files-1.1\firebase-iid-17.0.4.aar\321bfaab2dffd1a4cdf7e5e86a9e192b\AndroidManifest.xml:53:13-55:29
	android:priority
		ADDED from [com.google.firebase:firebase-iid:17.0.4] C:\Users\GEORGE\.gradle\caches\transforms-1\files-1.1\firebase-iid-17.0.4.aar\321bfaab2dffd1a4cdf7e5e86a9e192b\AndroidManifest.xml:53:28-51
action#com.google.firebase.INSTANCE_ID_EVENT
ADDED from [com.google.firebase:firebase-iid:17.0.4] C:\Users\GEORGE\.gradle\caches\transforms-1\files-1.1\firebase-iid-17.0.4.aar\321bfaab2dffd1a4cdf7e5e86a9e192b\AndroidManifest.xml:54:17-80
	android:name
		ADDED from [com.google.firebase:firebase-iid:17.0.4] C:\Users\GEORGE\.gradle\caches\transforms-1\files-1.1\firebase-iid-17.0.4.aar\321bfaab2dffd1a4cdf7e5e86a9e192b\AndroidManifest.xml:54:25-77
provider#com.google.firebase.provider.FirebaseInitProvider
ADDED from [com.google.firebase:firebase-common:16.0.4] C:\Users\GEORGE\.gradle\caches\transforms-1\files-1.1\firebase-common-16.0.4.aar\7261c89572737b21de606748d73f3661\AndroidManifest.xml:10:9-14:39
	android:authorities
		ADDED from [com.google.firebase:firebase-common:16.0.4] C:\Users\GEORGE\.gradle\caches\transforms-1\files-1.1\firebase-common-16.0.4.aar\7261c89572737b21de606748d73f3661\AndroidManifest.xml:12:13-72
	android:exported
		ADDED from [com.google.firebase:firebase-common:16.0.4] C:\Users\GEORGE\.gradle\caches\transforms-1\files-1.1\firebase-common-16.0.4.aar\7261c89572737b21de606748d73f3661\AndroidManifest.xml:13:13-37
	android:initOrder
		ADDED from [com.google.firebase:firebase-common:16.0.4] C:\Users\GEORGE\.gradle\caches\transforms-1\files-1.1\firebase-common-16.0.4.aar\7261c89572737b21de606748d73f3661\AndroidManifest.xml:14:13-36
	android:name
		ADDED from [com.google.firebase:firebase-common:16.0.4] C:\Users\GEORGE\.gradle\caches\transforms-1\files-1.1\firebase-common-16.0.4.aar\7261c89572737b21de606748d73f3661\AndroidManifest.xml:11:13-77
activity#com.google.android.gms.common.api.GoogleApiActivity
ADDED from [com.google.android.gms:play-services-base:16.0.1] C:\Users\GEORGE\.gradle\caches\transforms-1\files-1.1\play-services-base-16.0.1.aar\43f74d7e926959ff60864b18a399daa4\AndroidManifest.xml:23:9-26:75
	android:exported
		ADDED from [com.google.android.gms:play-services-base:16.0.1] C:\Users\GEORGE\.gradle\caches\transforms-1\files-1.1\play-services-base-16.0.1.aar\43f74d7e926959ff60864b18a399daa4\AndroidManifest.xml:25:13-37
	android:theme
		ADDED from [com.google.android.gms:play-services-base:16.0.1] C:\Users\GEORGE\.gradle\caches\transforms-1\files-1.1\play-services-base-16.0.1.aar\43f74d7e926959ff60864b18a399daa4\AndroidManifest.xml:26:13-72
	android:name
		ADDED from [com.google.android.gms:play-services-base:16.0.1] C:\Users\GEORGE\.gradle\caches\transforms-1\files-1.1\play-services-base-16.0.1.aar\43f74d7e926959ff60864b18a399daa4\AndroidManifest.xml:24:13-79
meta-data#com.google.android.gms.version
ADDED from [com.google.android.gms:play-services-basement:16.1.0] C:\Users\GEORGE\.gradle\caches\transforms-1\files-1.1\play-services-basement-16.1.0.aar\a3b0d04da621286d97933358a6f2ca2d\AndroidManifest.xml:23:9-25:69
	android:value
		ADDED from [com.google.android.gms:play-services-basement:16.1.0] C:\Users\GEORGE\.gradle\caches\transforms-1\files-1.1\play-services-basement-16.1.0.aar\a3b0d04da621286d97933358a6f2ca2d\AndroidManifest.xml:25:13-66
	android:name
		ADDED from [com.google.android.gms:play-services-basement:16.1.0] C:\Users\GEORGE\.gradle\caches\transforms-1\files-1.1\play-services-basement-16.1.0.aar\a3b0d04da621286d97933358a6f2ca2d\AndroidManifest.xml:24:13-58
